<svg xmlns="http://www.w3.org/2000/svg" width="13.9" height="13.47" viewBox="0 0 13.9 13.47">
  <metadata><?xpacket begin="﻿" id="W5M0MpCehiHzreSzNTczkc9d"?>
<x:xmpmeta xmlns:x="adobe:ns:meta/" x:xmptk="Adobe XMP Core 5.6-c138 79.159824, 2016/09/14-01:09:01        ">
   <rdf:RDF xmlns:rdf="http://www.w3.org/1999/02/22-rdf-syntax-ns#">
      <rdf:Description rdf:about=""/>
   </rdf:RDF>
</x:xmpmeta>
                                                                                                    
                                                                                                    
                                                                                                    
                                                                                                    
                                                                                                    
                                                                                                    
                                                                                                    
                                                                                                    
                                                                                                    
                                                                                                    
                                                                                                    
                                                                                                    
                                                                                                    
                                                                                                    
                                                                                                    
                                                                                                    
                                                                                                    
                                                                                                    
                                                                                                    
                                                                                                    
                           
<?xpacket end="w"?></metadata>
<defs>
    <style>
      .cls-1 {
        fill: #008bd0;
        fill-rule: evenodd;
      }
    </style>
  </defs>
  <path id="_" data-name="" class="cls-1" d="M2464.06,4427.79a0.493,0.493,0,0,0-.14-0.32l-6.5-6.5a0.436,0.436,0,0,0-.64,0l-6.5,6.5a0.493,0.493,0,0,0-.14.32,0.515,0.515,0,0,0,.14.32l0.7,0.7a0.436,0.436,0,0,0,.64,0l5.48-5.49,5.48,5.49a0.515,0.515,0,0,0,.32.14,0.453,0.453,0,0,0,.32-0.14l0.7-.7A0.515,0.515,0,0,0,2464.06,4427.79Zm0-5.36a0.515,0.515,0,0,0-.14-0.32l-6.5-6.5a0.436,0.436,0,0,0-.64,0l-6.5,6.5a0.515,0.515,0,0,0-.14.32,0.493,0.493,0,0,0,.14.32l0.7,0.7a0.436,0.436,0,0,0,.64,0l5.48-5.48,5.48,5.48a0.515,0.515,0,0,0,.32.14,0.453,0.453,0,0,0,.32-0.14l0.7-.7A0.493,0.493,0,0,0,2464.06,4422.43Z" transform="translate(-2450.16 -4415.47)"/>
</svg>
