<?xml version="1.0" encoding="utf-8"?>
<!-- Generator: Adobe Illustrator 21.1.0, SVG Export Plug-In . SVG Version: 6.00 Build 0)  -->
<!DOCTYPE svg PUBLIC "-//W3C//DTD SVG 1.1//EN" "http://www.w3.org/Graphics/SVG/1.1/DTD/svg11.dtd">
<svg version="1.1" id="Layer_1" xmlns="http://www.w3.org/2000/svg" xmlns:xlink="http://www.w3.org/1999/xlink" x="0px" y="0px"
	 viewBox="0 0 13.4 13.8" style="enable-background:new 0 0 13.4 13.8;" xml:space="preserve">
<style type="text/css">
	.st0{fill:#FFFFFF;}
</style>
<path id="_" class="st0" d="M8.1,6.9c0-0.1-0.1-0.2-0.1-0.3L1.5,0.2C1.3,0,1,0,0.9,0.1c0,0,0,0,0,0L0.1,0.8C0,1,0,1.3,0.1,1.5
	c0,0,0,0,0,0l5.4,5.4l-5.4,5.4C0,12.5,0,12.8,0.1,13c0,0,0,0,0,0l0.7,0.7c0.2,0.2,0.4,0.2,0.6,0c0,0,0,0,0,0l6.5-6.4
	C8,7.2,8.1,7,8.1,6.9z M13.4,6.9c0-0.1-0.1-0.2-0.1-0.3L6.8,0.2C6.6,0,6.3,0,6.2,0.1c0,0,0,0,0,0L5.5,0.8C5.3,1,5.3,1.3,5.4,1.5
	c0,0,0,0,0,0l5.4,5.4l-5.4,5.4c-0.2,0.2-0.2,0.4,0,0.6c0,0,0,0,0,0l0.7,0.7c0.2,0.2,0.4,0.2,0.6,0c0,0,0,0,0,0l6.4-6.4
	C13.3,7.2,13.4,7,13.4,6.9z"/>
</svg>
