<?xml version="1.0" encoding="utf-8"?>
<!-- Generator: Adobe Illustrator 23.0.1, SVG Export Plug-In . SVG Version: 6.00 Build 0)  -->
<svg version="1.1" id="Layer_1" xmlns="http://www.w3.org/2000/svg" xmlns:xlink="http://www.w3.org/1999/xlink" x="0px" y="0px"
	 viewBox="0 0 543.1 340.5" style="enable-background:new 0 0 543.1 340.5;" xml:space="preserve">
<style type="text/css">
	.st0{fill:#0055B8;}
	.st1{fill:none;stroke:#0055B8;stroke-width:0.75;stroke-miterlimit:10;}
	.st2{fill:none;stroke:#0055B8;stroke-width:0.75;stroke-miterlimit:10;stroke-dasharray:3.91,3.91;}
	.st3{fill:none;stroke:#0055B8;stroke-width:0.75;stroke-miterlimit:10;stroke-dasharray:3.97,3.97;}
	.st4{fill:none;stroke:#000000;stroke-width:0.96;stroke-miterlimit:10;}
	.st5{fill:#404041;}
	.st6{fill:none;stroke:#404041;stroke-width:1.91;stroke-linecap:round;stroke-miterlimit:10;}
	.st7{fill:none;stroke:#10CFC9;stroke-width:1.91;stroke-linecap:round;stroke-miterlimit:10;}
	.st8{fill:#404041;stroke:#404041;stroke-width:0.48;stroke-miterlimit:10;}
	.st9{fill:#10CFC9;stroke:#10CFC9;stroke-width:0.48;stroke-miterlimit:10;}
	.st10{fill:#10CFC9;stroke:#10CFC9;stroke-width:0.78;stroke-miterlimit:10;}
	.st11{fill:#404041;stroke:#404041;stroke-width:0.78;stroke-miterlimit:10;}
</style>
<title>chart-hcp</title>
<path class="st0" d="M71.2,156.7"/>
<line class="st1" x1="86.7" y1="281.3" x2="86.7" y2="279.3"/>
<line class="st2" x1="86.7" y1="275.4" x2="86.7" y2="144.3"/>
<line class="st1" x1="86.7" y1="142.4" x2="86.7" y2="140.4"/>
<line class="st1" x1="141.2" y1="280.9" x2="141.2" y2="278.9"/>
<line class="st3" x1="141.2" y1="274.9" x2="141.2" y2="46.6"/>
<line class="st1" x1="141.2" y1="44.6" x2="141.2" y2="42.6"/>
<line class="st1" x1="208.7" y1="280.9" x2="208.7" y2="278.9"/>
<line class="st3" x1="208.7" y1="274.9" x2="208.7" y2="165.9"/>
<line class="st1" x1="208.7" y1="163.9" x2="208.7" y2="161.9"/>
<line class="st4" x1="535.8" y1="289.3" x2="535.8" y2="301.1"/>
<line class="st4" x1="45.9" y1="289.9" x2="542.6" y2="289.9"/>
<line class="st4" x1="45.9" y1="289.9" x2="45.9" y2="282.8"/>
<line class="st4" x1="59.5" y1="289.9" x2="59.5" y2="282.8"/>
<line class="st4" x1="73.1" y1="289.9" x2="73.1" y2="282.8"/>
<line class="st4" x1="86.7" y1="295.8" x2="86.7" y2="282.8"/>
<line class="st4" x1="100.3" y1="289.9" x2="100.3" y2="282.8"/>
<line class="st4" x1="113.9" y1="289.9" x2="113.9" y2="282.8"/>
<line class="st4" x1="127.5" y1="289.9" x2="127.5" y2="282.8"/>
<line class="st4" x1="141.1" y1="289.9" x2="141.1" y2="282.8"/>
<line class="st4" x1="154.7" y1="289.9" x2="154.7" y2="282.8"/>
<line class="st4" x1="168" y1="295.8" x2="168" y2="282.8"/>
<line class="st4" x1="182" y1="289.9" x2="182" y2="282.8"/>
<line class="st4" x1="195.6" y1="289.9" x2="195.6" y2="282.8"/>
<line class="st4" x1="208.6" y1="289.9" x2="208.6" y2="282.8"/>
<line class="st4" x1="222.8" y1="289.9" x2="222.8" y2="282.8"/>
<line class="st4" x1="236.4" y1="289.9" x2="236.4" y2="282.8"/>
<line class="st4" x1="250" y1="295.9" x2="250" y2="282.8"/>
<line class="st4" x1="263.6" y1="289.9" x2="263.6" y2="282.8"/>
<line class="st4" x1="277.2" y1="289.9" x2="277.2" y2="282.8"/>
<line class="st4" x1="290.8" y1="289.9" x2="290.8" y2="282.8"/>
<line class="st4" x1="304.4" y1="289.9" x2="304.4" y2="282.8"/>
<line class="st4" x1="318" y1="289.9" x2="318" y2="282.8"/>
<line class="st4" x1="331.7" y1="295.9" x2="331.7" y2="282.8"/>
<line class="st4" x1="345.3" y1="289.9" x2="345.3" y2="282.8"/>
<line class="st4" x1="358.9" y1="289.9" x2="358.9" y2="282.8"/>
<line class="st4" x1="372.5" y1="289.9" x2="372.5" y2="282.8"/>
<line class="st4" x1="386.1" y1="289.9" x2="386.1" y2="282.8"/>
<line class="st4" x1="399.7" y1="289.9" x2="399.7" y2="282.8"/>
<line class="st4" x1="413.3" y1="295.9" x2="413.3" y2="282.8"/>
<line class="st4" x1="426.9" y1="289.9" x2="426.9" y2="282.8"/>
<line class="st4" x1="440.5" y1="289.9" x2="440.5" y2="282.8"/>
<line class="st4" x1="454.1" y1="289.9" x2="454.1" y2="282.8"/>
<line class="st4" x1="467.8" y1="289.9" x2="467.8" y2="282.8"/>
<line class="st4" x1="481.4" y1="289.9" x2="481.4" y2="282.8"/>
<line class="st4" x1="495" y1="295.9" x2="495" y2="282.8"/>
<line class="st4" x1="508.6" y1="289.9" x2="508.6" y2="282.8"/>
<line class="st4" x1="522.2" y1="289.9" x2="522.2" y2="282.8"/>
<line class="st4" x1="535.8" y1="289.9" x2="535.8" y2="282.8"/>
<path class="st5" d="M37.6,289.7c0,3.4-1.3,5.2-3.5,5.2c-1.9,0-3.3-1.8-3.3-5.1s1.4-5.2,3.5-5.2C36.3,284.7,37.6,286.6,37.6,289.7z
	 M32.2,289.9c0,2.6,0.8,4,2,4s2-1.6,2-4.1s-0.6-4-2-4C33,285.7,32.2,287.1,32.2,289.9z"/>
<path class="st5" d="M36.9,214.8h-3.8l-0.4,2.6c0.3,0,0.5-0.1,0.8-0.1c0.7,0,1.5,0.2,2.1,0.5c0.9,0.5,1.5,1.5,1.4,2.6
	c0,1.9-1.6,3.4-3.5,3.4c-0.1,0-0.1,0-0.2,0c-0.9,0-1.7-0.2-2.5-0.6l0.3-1c0.7,0.4,1.4,0.5,2.1,0.6c1.2,0.1,2.3-0.8,2.3-2.1
	c0,0,0-0.1,0-0.1c0-1.3-0.9-2.2-2.9-2.2c-0.5,0-0.9,0-1.4,0.1l0.6-4.8h4.8V214.8z"/>
<path class="st5" d="M26,143.8L26,143.8l-1.7,0.9l-0.3-1l2.1-1.1h1.1v9.9H26V143.8z"/>
<path class="st5" d="M37.6,147.4c0,3.4-1.3,5.2-3.5,5.2c-1.9,0-3.3-1.8-3.3-5.1s1.4-5.2,3.5-5.2C36.3,142.3,37.6,144.2,37.6,147.4z
	 M32.2,147.5c0,2.6,0.8,4,2,4s2-1.6,2-4.1s-0.6-4.1-2-4.1C33,143.4,32.2,144.8,32.2,147.5L32.2,147.5z"/>
<path class="st5" d="M26,72.6L26,72.6l-1.7,0.9l-0.3-1l2.2-1.2h1.1v9.9H26V72.6z"/>
<path class="st5" d="M36.9,72.5h-3.8L32.7,75c0.3,0,0.5-0.1,0.8-0.1c0.7,0,1.5,0.2,2.1,0.5c0.9,0.5,1.5,1.5,1.4,2.6
	c0,1.9-1.6,3.4-3.5,3.4c-0.1,0-0.1,0-0.2,0c-0.9,0-1.7-0.2-2.5-0.6l0.3-1c0.7,0.4,1.4,0.5,2.1,0.6c1.2,0.1,2.3-0.8,2.3-2
	c0,0,0-0.1,0-0.1c0-1.3-0.9-2.2-2.9-2.2c-0.5,0-0.9,0-1.4,0.1l0.6-4.8h4.8V72.5z"/>
<path class="st5" d="M23.1,10.1V9.3l1-1c2.5-2.4,3.7-3.7,3.7-5.2c0.1-1-0.6-1.9-1.6-2c-0.1,0-0.3,0-0.4,0c-0.8,0-1.5,0.3-2.1,0.9
	l-0.4-1c0.8-0.7,1.8-1,2.8-1c1.5-0.1,2.9,1,3,2.5c0,0.1,0,0.2,0,0.4c0,1.8-1.3,3.3-3.4,5.3L24.9,9l0,0h4.5v1.1L23.1,10.1z"/>
<path class="st5" d="M37.6,5c0,3.4-1.3,5.2-3.5,5.2c-1.9,0-3.3-1.8-3.3-5.1S32.2,0,34.3,0C36.3,0,37.6,1.9,37.6,5z M32.2,5.2
	c0,2.6,0.8,4,2,4s2-1.6,2-4.1s-0.6-4-2-4C33,1,32.2,2.5,32.2,5.2z"/>
<line class="st4" x1="45.9" y1="289.9" x2="45.9" y2="4.9"/>
<line class="st4" x1="45.9" y1="289.9" x2="58.3" y2="289.9"/>
<line class="st4" x1="45.9" y1="218.7" x2="58.3" y2="218.7"/>
<line class="st4" x1="45.9" y1="147.4" x2="58.3" y2="147.4"/>
<line class="st4" x1="45.9" y1="76.2" x2="58.3" y2="76.2"/>
<line class="st4" x1="45.9" y1="4.9" x2="58.3" y2="4.9"/>
<line class="st6" x1="52.7" y1="265.6" x2="46.2" y2="290"/>
<line class="st6" x1="59.8" y1="169.8" x2="52.7" y2="265.6"/>
<line class="st6" x1="66.5" y1="138.9" x2="59.8" y2="169.8"/>
<line class="st6" x1="73.3" y1="137.5" x2="66.5" y2="138.9"/>
<line class="st6" x1="80" y1="136.1" x2="73.3" y2="137.5"/>
<line class="st6" x1="86.4" y1="136.1" x2="80" y2="136.1"/>
<line class="st6" x1="93.8" y1="130.4" x2="86.4" y2="136.1"/>
<line class="st6" x1="100.3" y1="119" x2="93.8" y2="130.4"/>
<line class="st6" x1="107.1" y1="84.8" x2="100.3" y2="119"/>
<line class="st6" x1="113.8" y1="34.9" x2="107.1" y2="84.8"/>
<line class="st6" x1="120.6" y1="27.7" x2="113.8" y2="34.9"/>
<line class="st6" x1="127.6" y1="26.3" x2="120.6" y2="27.7"/>
<line class="st6" x1="134.3" y1="23.5" x2="127.6" y2="26.3"/>
<line class="st6" x1="141.2" y1="27.7" x2="134.3" y2="23.5"/>
<line class="st6" x1="147.7" y1="32" x2="141.2" y2="27.7"/>
<line class="st6" x1="154.2" y1="44.8" x2="147.7" y2="32"/>
<line class="st6" x1="161.2" y1="53.4" x2="154.2" y2="44.8"/>
<line class="st6" x1="168" y1="67.7" x2="161.2" y2="53.4"/>
<line class="st6" x1="174.9" y1="86.2" x2="168" y2="67.7"/>
<polyline class="st6" points="174.9,86.2 182,99 195.9,127.5 209.4,156.2 236.5,200.2 263.5,231.3 372.5,276.1 535.8,289.3 "/>
<line class="st7" x1="52.7" y1="265.6" x2="46.2" y2="290"/>
<line class="st7" x1="59.8" y1="185.4" x2="52.7" y2="265.6"/>
<line class="st7" x1="66.5" y1="159.6" x2="59.8" y2="185.4"/>
<line class="st7" x1="73.3" y1="148.5" x2="66.5" y2="159.6"/>
<line class="st7" x1="80" y1="137.5" x2="73.3" y2="148.5"/>
<line class="st7" x1="86.4" y1="121.8" x2="80" y2="137.5"/>
<line class="st7" x1="93.8" y1="103.3" x2="86.4" y2="121.8"/>
<line class="st7" x1="100.3" y1="89" x2="93.8" y2="103.3"/>
<line class="st7" x1="107.1" y1="56.2" x2="100.3" y2="89"/>
<line class="st7" x1="113.8" y1="17.8" x2="107.1" y2="56.2"/>
<line class="st7" x1="120.6" y1="12.1" x2="113.8" y2="17.8"/>
<line class="st7" x1="127.6" y1="24.9" x2="120.6" y2="12.1"/>
<line class="st7" x1="134.3" y1="27.7" x2="127.6" y2="24.9"/>
<line class="st7" x1="141.2" y1="37.7" x2="134.3" y2="27.7"/>
<line class="st7" x1="147.7" y1="49.1" x2="141.2" y2="37.7"/>
<line class="st7" x1="154.2" y1="57.7" x2="147.7" y2="49.1"/>
<line class="st7" x1="161.2" y1="71.9" x2="154.2" y2="57.7"/>
<line class="st7" x1="168" y1="81.9" x2="161.2" y2="71.9"/>
<line class="st7" x1="174.9" y1="96.2" x2="168" y2="81.9"/>
<polyline class="st7" points="174.9,96.2 182,104.7 195.6,121.8 209.4,146 236.5,193.5 263.5,224.6 372.5,272.9 536.5,289.6 "/>
<line class="st4" x1="127.5" y1="290" x2="127.5" y2="301.8"/>
<line class="st4" x1="208.6" y1="290" x2="208.6" y2="301.8"/>
<line class="st4" x1="290.8" y1="290" x2="290.8" y2="301.8"/>
<line class="st4" x1="372.5" y1="290" x2="372.5" y2="301.8"/>
<line class="st4" x1="454.1" y1="290" x2="454.1" y2="301.8"/>
<line class="st4" x1="45.9" y1="290" x2="45.9" y2="301.8"/>
<path class="st5" d="M48.7,311.7c0,3.4-1.2,5.2-3.5,5.2c-1.9,0-3.3-1.8-3.3-5.1s1.4-5.2,3.5-5.2S48.7,308.6,48.7,311.7z M43.3,311.9
	c0,2.6,0.8,4,2,4c1.4,0,2-1.6,2-4.1s-0.6-4-2-4C44.2,307.7,43.3,309.2,43.3,311.9L43.3,311.9z"/>
<path class="st5" d="M130,307.8c-0.3,0-0.7,0-1,0.1c-1.8,0.2-3.3,1.7-3.5,3.5l0,0c1-1.3,2.9-1.6,4.2-0.7c0.9,0.6,1.3,1.7,1.2,2.7
	c0.1,1.8-1.3,3.4-3.1,3.5c-0.1,0-0.1,0-0.2,0c-2.1,0-3.5-1.6-3.5-4.2c-0.1-1.7,0.5-3.3,1.7-4.5c0.9-0.8,2-1.3,3.2-1.5
	c0.3-0.1,0.7-0.1,1-0.1L130,307.8z M129.6,313.6c0.2-1.1-0.6-2.1-1.7-2.3c-0.1,0-0.2,0-0.4,0c-0.8,0-1.6,0.5-1.9,1.2
	c-0.1,0.2-0.2,0.4-0.1,0.6c0,1.6,0.8,2.8,2.2,2.8C128.8,315.9,129.6,315,129.6,313.6L129.6,313.6z"/>
<path class="st5" d="M204.5,308.6L204.5,308.6l-1.7,0.9l-0.3-1l2.2-1.2h1.1v9.9h-1.3L204.5,308.6z"/>
<path class="st5" d="M209.4,317.2v-0.8l1.1-1c2.5-2.4,3.7-3.7,3.7-5.2c0.1-1-0.6-1.8-1.6-1.9c-0.1,0-0.3,0-0.4,0
	c-0.8,0-1.5,0.3-2.1,0.8l-0.4-1c0.8-0.7,1.8-1,2.8-1c1.5-0.1,2.9,1,3,2.6c0,0.1,0,0.2,0,0.3c0,1.8-1.3,3.3-3.4,5.3l-0.8,0.7l0,0h4.5
	v1.1L209.4,317.2z"/>
<path class="st5" d="M286.6,308.1L286.6,308.1l-1.7,0.9l-0.3-1l2.2-1.2h1.1v9.9h-1.3L286.6,308.1z"/>
<path class="st5" d="M291.4,314.3c0-1.2,0.8-2.3,2-2.7l0,0c-0.9-0.4-1.6-1.2-1.6-2.2c0-1.6,1.3-2.6,3.1-2.6c1.9,0,2.9,1.2,2.9,2.4
	c0,1-0.7,2-1.6,2.3l0,0c1.2,0.3,2,1.4,2,2.6c0,1.7-1.5,2.9-3.4,2.9C292.7,317,291.4,315.7,291.4,314.3z M296.8,314.2
	c0-1.2-0.8-1.8-2.2-2.2c-1,0.2-1.8,1-1.8,2c0,1,0.8,1.9,1.8,1.9c0.1,0,0.2,0,0.2,0c1,0.1,1.9-0.7,1.9-1.7
	C296.7,314.3,296.7,314.3,296.8,314.2L296.8,314.2z M293,309.2c0,1,0.8,1.5,1.9,1.8c0.8-0.2,1.5-0.9,1.5-1.8c0-0.9-0.6-1.6-1.5-1.6
	c-0.1,0-0.1,0-0.2,0c-0.9-0.1-1.6,0.6-1.7,1.4C293.1,309.1,293,309.2,293,309.2L293,309.2z"/>
<path class="st5" d="M365.3,316.8V316l1-1c2.5-2.4,3.7-3.7,3.7-5.2c0.1-1-0.6-1.9-1.6-2c-0.1,0-0.3,0-0.4,0c-0.8,0-1.5,0.3-2.1,0.8
	l-0.4-0.9c0.8-0.7,1.8-1,2.8-1c1.5-0.1,2.9,1,3,2.6c0,0.1,0,0.2,0,0.3c0,1.8-1.3,3.3-3.4,5.3l-0.8,0.7l0,0h4.6v1.1L365.3,316.8z"/>
<path class="st5" d="M377.3,316.8v-2.7h-4.6v-0.9l4.4-6.3h1.5v6.2h1.4v1.1h-1.4v2.7H377.3z M377.3,313v-3.3c0-0.5,0-1,0-1.6h0
	c-0.3,0.6-0.5,1-0.8,1.5l-2.4,3.4l0,0L377.3,313z"/>
<path class="st5" d="M447.3,315.3c0.7,0.4,1.4,0.6,2.2,0.6c1.7,0,2.3-1.1,2.2-1.9c0-1.4-1.3-2-2.6-2h-0.8v-1h0.8
	c1,0,2.2-0.5,2.2-1.7c0-0.8-0.5-1.5-1.8-1.5c-0.7,0-1.4,0.2-2,0.7l-0.4-1c0.8-0.5,1.7-0.8,2.6-0.8c2,0,2.9,1.2,2.9,2.4
	c0,1.1-0.8,2.1-1.8,2.3l0,0c1.3,0.2,2.2,1.3,2.2,2.5c0,1.6-1.2,3-3.6,3c-0.9,0-1.8-0.2-2.6-0.7L447.3,315.3z"/>
<path class="st5" d="M461.4,311.7c0,3.4-1.2,5.2-3.5,5.2c-2,0-3.3-1.8-3.3-5.1s1.4-5.2,3.5-5.2S461.4,308.6,461.4,311.7z M456,311.9
	c0,2.6,0.8,4,2,4c1.4,0,2-1.6,2-4.1s-0.6-4-2-4C456.9,307.7,456,309.2,456,311.9z"/>
<path class="st5" d="M529,315.3c0.7,0.4,1.4,0.6,2.2,0.6c1.7,0,2.3-1.1,2.2-1.9c0-1.4-1.3-2-2.6-2h-0.8v-1h0.8c1,0,2.2-0.5,2.2-1.7
	c0-0.8-0.5-1.5-1.7-1.5c-0.7,0-1.4,0.2-2,0.7l-0.4-1c0.8-0.5,1.7-0.8,2.6-0.8c2,0,2.8,1.2,2.8,2.4c0,1.1-0.8,2.1-1.8,2.3l0,0
	c1.3,0.2,2.2,1.3,2.2,2.5c0,1.6-1.2,3-3.6,3c-0.9,0-1.8-0.2-2.6-0.7L529,315.3z"/>
<path class="st5" d="M542.2,307.8c-0.3,0-0.7,0-1,0.1c-1.8,0.2-3.3,1.7-3.5,3.5l0,0c1-1.3,2.9-1.6,4.2-0.6c0.8,0.6,1.3,1.6,1.2,2.7
	c0.1,1.8-1.3,3.4-3.1,3.5c-0.1,0-0.1,0-0.2,0c-2.1,0-3.5-1.6-3.5-4.2c-0.1-1.7,0.5-3.3,1.7-4.5c0.9-0.8,2-1.3,3.2-1.5
	c0.3-0.1,0.7-0.1,1-0.1V307.8z M541.8,313.5c0.2-1.1-0.6-2.1-1.7-2.3c-0.1,0-0.2,0-0.3,0c-0.8,0-1.6,0.5-1.9,1.2
	c-0.1,0.2-0.2,0.4-0.2,0.6c0,1.6,0.8,2.8,2.2,2.8C541,315.9,541.8,315,541.8,313.5L541.8,313.5z"/>
<rect x="43.4" y="287.1" class="st8" width="5.7" height="5.7"/>
<rect x="49.8" y="262.8" class="st8" width="5.7" height="5.7"/>
<rect x="56.9" y="167" class="st8" width="5.7" height="5.7"/>
<rect x="63.7" y="136" class="st8" width="5.7" height="5.7"/>
<rect x="70.4" y="134.6" class="st8" width="5.7" height="5.7"/>
<rect x="77.2" y="133.2" class="st8" width="5.7" height="5.7"/>
<rect x="83.6" y="133.2" class="st8" width="5.7" height="5.7"/>
<rect x="91" y="127.5" class="st8" width="5.7" height="5.7"/>
<rect x="97.5" y="116.1" class="st8" width="5.7" height="5.7"/>
<rect x="104.2" y="81.9" class="st8" width="5.7" height="5.7"/>
<rect x="111" y="32" class="st8" width="5.7" height="5.7"/>
<rect x="117.7" y="24.9" class="st8" width="5.7" height="5.7"/>
<rect x="124.7" y="23.4" class="st8" width="5.7" height="5.7"/>
<rect x="131.5" y="20.6" class="st8" width="5.7" height="5.7"/>
<rect x="138.3" y="24.9" class="st8" width="5.7" height="5.7"/>
<rect x="144.8" y="29.1" class="st8" width="5.7" height="5.7"/>
<rect x="151.4" y="42" class="st8" width="5.7" height="5.7"/>
<rect x="158.3" y="50.5" class="st8" width="5.7" height="5.7"/>
<rect x="165.2" y="64.8" class="st8" width="5.7" height="5.7"/>
<rect x="172" y="83.3" class="st8" width="5.7" height="5.7"/>
<rect x="179.1" y="96.1" class="st8" width="5.7" height="5.7"/>
<rect x="193.1" y="124.6" class="st8" width="5.7" height="5.7"/>
<rect x="206.6" y="153.3" class="st8" width="5.7" height="5.7"/>
<rect x="233.6" y="197.3" class="st8" width="5.7" height="5.7"/>
<rect x="260.7" y="228.4" class="st8" width="5.7" height="5.7"/>
<rect x="369.6" y="273.2" class="st8" width="5.7" height="5.7"/>
<rect x="533" y="286.8" class="st8" width="5.7" height="5.7"/>
<rect x="43.4" y="287.1" class="st9" width="5.7" height="5.7"/>
<rect x="49.8" y="262.8" class="st9" width="5.7" height="5.7"/>
<rect x="56.9" y="182.5" class="st9" width="5.7" height="5.7"/>
<rect x="63.7" y="156.7" class="st9" width="5.7" height="5.7"/>
<rect x="70.4" y="145.6" class="st9" width="5.7" height="5.7"/>
<rect x="77.2" y="134.6" class="st9" width="5.7" height="5.7"/>
<rect x="83.6" y="118.9" class="st9" width="5.7" height="5.7"/>
<rect x="91" y="100.4" class="st9" width="5.7" height="5.7"/>
<rect x="97.5" y="86.2" class="st9" width="5.7" height="5.7"/>
<rect x="104.2" y="53.4" class="st9" width="5.7" height="5.7"/>
<rect x="111" y="14.9" class="st9" width="5.7" height="5.7"/>
<rect x="117.7" y="9.2" class="st9" width="5.7" height="5.7"/>
<rect x="124.7" y="22" class="st9" width="5.7" height="5.7"/>
<rect x="131.5" y="24.9" class="st9" width="5.7" height="5.7"/>
<rect x="138.3" y="34.8" class="st9" width="5.7" height="5.7"/>
<rect x="144.8" y="46.2" class="st9" width="5.7" height="5.7"/>
<rect x="151.4" y="54.8" class="st9" width="5.7" height="5.7"/>
<rect x="158.3" y="69.1" class="st9" width="5.7" height="5.7"/>
<rect x="165.2" y="79" class="st9" width="5.7" height="5.7"/>
<rect x="172" y="93.3" class="st9" width="5.7" height="5.7"/>
<rect x="179.1" y="101.8" class="st9" width="5.7" height="5.7"/>
<rect x="193.1" y="118.9" class="st9" width="5.7" height="5.7"/>
<rect x="206.6" y="143.2" class="st9" width="5.7" height="5.7"/>
<rect x="233.6" y="190.2" class="st9" width="5.7" height="5.7"/>
<rect x="260.7" y="221.7" class="st9" width="5.7" height="5.7"/>
<rect x="369.6" y="270" class="st9" width="5.7" height="5.7"/>
<rect x="533" y="286.5" class="st9" width="5.7" height="5.7"/>
<rect x="252.8" y="74.7" class="st10" width="9.4" height="9.4"/>
<rect x="252.8" y="97.5" class="st11" width="9.4" height="9.4"/>
<path class="st5" d="M275.7,79.8c0,2.8-1.7,4.3-3.8,4.3s-3.6-1.7-3.6-4.1s1.6-4.2,3.8-4.2S275.7,77.4,275.7,79.8z M269.4,79.9
	c0,1.7,0.9,3.3,2.6,3.3s2.6-1.5,2.6-3.4c0-1.6-0.8-3.3-2.6-3.3S269.4,78.1,269.4,79.9L269.4,79.9z"/>
<path class="st5" d="M277,79.6c0-0.6,0-1.1,0-1.6h0.9l0.1,1l0,0c0.4-0.7,1.1-1.1,1.9-1.1c0.8,0,2,0.5,2,2.5v3.5h-1v-3.4
	c0-0.9-0.4-1.7-1.4-1.7c-0.7,0-1.2,0.5-1.4,1.1c-0.1,0.2-0.1,0.3-0.1,0.5v3.5h-1V79.6z"/>
<path class="st5" d="M284.3,81.2c-0.1,1,0.7,1.9,1.7,2c0.1,0,0.2,0,0.3,0c0.6,0,1.1-0.1,1.6-0.3l0.2,0.8c-0.6,0.3-1.3,0.4-1.9,0.4
	c-1.5,0.1-2.8-1-2.9-2.5c0-0.1,0-0.3,0-0.4c0-1.8,1-3.1,2.7-3.1c1.4,0,2.4,1.1,2.4,2.5c0,0.1,0,0.2,0,0.2c0,0.2,0,0.3,0,0.5
	L284.3,81.2z M287.4,80.4c0.1-0.8-0.5-1.6-1.3-1.7c-0.1,0-0.1,0-0.2,0c-0.9,0.1-1.6,0.8-1.6,1.7H287.4z"/>
<path class="st5" d="M299.1,80.3c0-1.1-0.1-2.5-0.1-3.5l0,0c-0.3,0.9-0.6,1.9-1,3.1l-1.4,3.9h-0.8l-1.3-3.8
	c-0.4-1.1-0.7-2.2-0.9-3.1l0,0c0,1-0.1,2.4-0.1,3.6l-0.2,3.5h-1l0.6-8.1h1.3l1.4,3.9c0.3,1,0.6,1.9,0.8,2.7l0,0
	c0.2-0.8,0.5-1.7,0.9-2.7l1.4-3.9h1.3l0.5,8.1h-1L299.1,80.3z"/>
<path class="st5" d="M302.5,81.2c-0.1,1,0.7,1.9,1.7,2c0.1,0,0.2,0,0.3,0c0.6,0,1.1-0.1,1.6-0.3l0.2,0.8c-0.6,0.3-1.3,0.4-1.9,0.4
	c-1.5,0.1-2.8-1-2.9-2.5c0-0.1,0-0.3,0-0.4c0-1.8,1-3.1,2.7-3.1c1.4,0,2.4,1.2,2.4,2.5c0,0.1,0,0.1,0,0.2c0,0.2,0,0.3,0,0.5
	L302.5,81.2z M305.6,80.4c0.1-0.8-0.5-1.6-1.3-1.7c-0.1,0-0.1,0-0.2,0c-0.9,0.1-1.6,0.8-1.6,1.7H305.6z"/>
<path class="st5" d="M309.2,76.4v1.7h1.5v0.8h-1.5V82c0,0.7,0.2,1.1,0.8,1.1c0.2,0,0.4,0,0.6-0.1l0,0.8c-0.3,0.1-0.6,0.2-0.9,0.2
	c-0.4,0-0.8-0.1-1.1-0.4c-0.3-0.4-0.5-1-0.4-1.5v-3.2h-0.9v-0.8h0.9v-1.4L309.2,76.4z"/>
<path class="st5" d="M311.9,75.4h1V79l0,0c0.2-0.3,0.4-0.6,0.8-0.7c0.3-0.2,0.7-0.3,1.1-0.3c0.8,0,2,0.5,2,2.5v3.5h-1v-3.3
	c0-0.9-0.4-1.7-1.4-1.7c-0.6,0-1.2,0.4-1.4,1c-0.1,0.2-0.1,0.3-0.1,0.5v3.5h-1L311.9,75.4z"/>
<path class="st5" d="M318.8,78.1l1.3,3.4c0.1,0.4,0.3,0.8,0.4,1.2l0,0c0.1-0.3,0.2-0.8,0.4-1.2l1.1-3.4h1.1l-1.6,4.1
	c-0.8,2-1.3,3-2,3.6c-0.4,0.3-0.8,0.6-1.3,0.7l-0.3-0.9c0.3-0.1,0.7-0.3,0.9-0.5c0.4-0.3,0.7-0.7,0.9-1.2c0-0.1,0.1-0.2,0.1-0.2
	c0-0.1,0-0.2-0.1-0.3l-2.1-5.4H318.8z"/>
<path class="st5" d="M324.1,75.4h1v8.5h-1V75.4z"/>
<path class="st5" d="M326.9,80c0-0.8,0-1.3,0-1.9h1l0,1l0,0c0.4-0.7,1.2-1.2,2.1-1.1c1.4,0,2.5,1.2,2.5,3c0,2.1-1.3,3.1-2.6,3.1
	c-0.7,0-1.4-0.3-1.8-0.9l0,0v3.2h-1L326.9,80z M327.9,81.5c0,0.1,0,0.3,0,0.4c0.2,0.7,0.8,1.2,1.6,1.2c1.1,0,1.8-0.9,1.8-2.2
	c0-1.2-0.6-2.2-1.7-2.2c-0.8,0-1.4,0.6-1.6,1.3c0,0.1-0.1,0.3-0.1,0.4L327.9,81.5z"/>
<path class="st5" d="M333.7,75.4h1V79l0,0c0.2-0.3,0.4-0.6,0.8-0.7c0.3-0.2,0.7-0.3,1.1-0.3c0.8,0,2,0.5,2,2.5v3.5h-1.1v-3.3
	c0-0.9-0.4-1.7-1.3-1.7c-0.6,0-1.2,0.4-1.4,1c-0.1,0.2-0.1,0.3-0.1,0.5v3.5h-1L333.7,75.4z"/>
<path class="st5" d="M341,81.2c-0.1,1,0.7,1.9,1.7,2c0.1,0,0.2,0,0.3,0c0.6,0,1.1-0.1,1.6-0.3l0.2,0.8c-0.6,0.3-1.3,0.4-1.9,0.4
	c-1.5,0.1-2.8-1-2.9-2.5c0-0.1,0-0.3,0-0.4c0-1.8,1-3.1,2.7-3.1c1.4,0,2.4,1.2,2.4,2.5c0,0.1,0,0.1,0,0.2c0,0.2,0,0.3,0,0.5
	L341,81.2z M344.1,80.4c0.1-0.8-0.5-1.6-1.3-1.7c-0.1,0-0.1,0-0.2,0c-0.9,0.1-1.6,0.8-1.6,1.7H344.1z"/>
<path class="st5" d="M346.4,79.6c0-0.6,0-1.1,0-1.6h0.9l0.1,1l0,0c0.4-0.7,1.1-1.1,1.9-1.1c0.8,0,2,0.5,2,2.5v3.5h-1.1v-3.4
	c0-0.9-0.3-1.7-1.3-1.7c-0.7,0-1.2,0.4-1.4,1.1c-0.1,0.2-0.1,0.3-0.1,0.5v3.5h-1L346.4,79.6z"/>
<path class="st5" d="M354.3,76.4c0,0.3-0.2,0.6-0.6,0.7c0,0-0.1,0-0.1,0c-0.3,0-0.6-0.3-0.6-0.6c0,0,0,0,0,0c0-0.4,0.3-0.6,0.6-0.7
	c0,0,0,0,0,0C354,75.8,354.2,76,354.3,76.4C354.3,76.4,354.3,76.4,354.3,76.4z M353.1,83.9v-5.8h1v5.8H353.1z"/>
<path class="st5" d="M360.9,75.4v7c0,0.5,0,1.1,0,1.5h-1l0-1l0,0c-0.4,0.7-1.2,1.2-2,1.1c-1.4,0-2.5-1.2-2.5-2.9
	c0-1.9,1.2-3.1,2.6-3.1c0.7,0,1.4,0.3,1.8,0.9l0,0v-3.5L360.9,75.4z M359.9,80.4c0-0.1,0-0.3,0-0.4c-0.2-0.7-0.8-1.2-1.5-1.2
	c-1.1,0-1.7,1-1.7,2.2s0.6,2.2,1.7,2.2c0.7,0,1.4-0.5,1.5-1.3c0-0.2,0-0.3,0-0.5V80.4z"/>
<path class="st5" d="M365.9,83.9l-0.1-0.7l0,0c-0.4,0.6-1.1,0.9-1.8,0.9c-0.9,0.1-1.7-0.6-1.8-1.5c0,0,0-0.1,0-0.1
	c0-1.4,1.2-2.2,3.5-2.2v-0.1c0.1-0.7-0.4-1.3-1-1.3c-0.1,0-0.2,0-0.3,0c-0.5,0-1.1,0.2-1.5,0.4l-0.2-0.7c0.6-0.4,1.2-0.5,1.9-0.5
	c1.8,0,2.2,1.2,2.2,2.4v2.2c0,0.5,0,0.9,0.1,1.4H365.9z M365.7,80.9c-1.1,0-2.5,0.2-2.5,1.3c0,0.5,0.4,1,0.9,1c0,0,0.1,0,0.1,0
	c0.6,0,1.2-0.4,1.4-1c0-0.1,0.1-0.2,0.1-0.3V80.9z"/>
<path class="st5" d="M369.7,76.4v1.7h1.5v0.8h-1.5V82c0,0.7,0.2,1.1,0.8,1.1c0.2,0,0.4,0,0.6-0.1v0.8c-0.3,0.1-0.6,0.2-0.9,0.2
	c-0.4,0-0.8-0.1-1.1-0.4c-0.3-0.4-0.5-1-0.4-1.5v-3.2h-0.9v-0.8h0.9v-1.4L369.7,76.4z"/>
<path class="st5" d="M372.9,81.2c-0.1,1,0.7,1.9,1.7,2c0.1,0,0.2,0,0.3,0c0.5,0,1.1-0.1,1.6-0.3l0.2,0.8c-0.6,0.3-1.3,0.4-1.9,0.4
	c-1.5,0.1-2.8-1-2.9-2.5c0-0.1,0-0.3,0-0.4c0-1.8,1-3.1,2.7-3.1c1.4,0,2.4,1.1,2.4,2.5c0,0.1,0,0.2,0,0.2c0,0.2,0,0.3,0,0.5
	L372.9,81.2z M376,80.4c0.1-0.8-0.5-1.6-1.3-1.7c-0.1,0-0.1,0-0.2,0c-0.9,0.1-1.6,0.8-1.6,1.7H376z"/>
<path class="st5" d="M385.1,80.1h-3.1V83h3.5v0.9h-4.5v-8.1h4.4v0.9h-3.3v2.6h3.1L385.1,80.1z"/>
<path class="st5" d="M386.8,75.9c0.7-0.1,1.3-0.2,2-0.2c0.8-0.1,1.7,0.2,2.3,0.7c0.4,0.4,0.6,1,0.6,1.5c0,0.9-0.6,1.8-1.5,2.1l0,0
	c0.7,0.3,1.1,0.9,1.2,1.6c0.1,0.8,0.3,1.5,0.6,2.2H391c-0.2-0.6-0.4-1.3-0.5-1.9c-0.2-1.1-0.7-1.5-1.6-1.6h-1v3.5h-1L386.8,75.9z
	 M387.8,79.6h1.1c1.1,0,1.8-0.6,1.8-1.5s-0.8-1.5-1.9-1.5c-0.3,0-0.7,0-1,0.1L387.8,79.6z"/>
<path class="st5" d="M400.5,76.1v0.7l-3.4,7.1H396l3.4-6.9l0,0h-3.8v-0.9L400.5,76.1z"/>
<path class="st5" d="M401.6,83.9v-0.7l0.8-0.8c2-1.9,2.9-2.9,2.9-4.1c0.1-0.8-0.5-1.4-1.2-1.5c-0.1,0-0.2,0-0.3,0
	c-0.6,0-1.2,0.2-1.6,0.7l-0.3-0.7c0.6-0.5,1.4-0.8,2.2-0.8c1.2-0.1,2.3,0.8,2.4,2c0,0.1,0,0.2,0,0.3c0,1.4-1,2.6-2.7,4.2L403,83l0,0
	h3.5v0.9L401.6,83.9z"/>
<path class="st5" d="M410.5,80.2V81h-3v-0.8H410.5z"/>
<path class="st5" d="M411.7,79.6c0-0.6,0-1.1,0-1.6h0.9V79l0,0c0.4-0.7,1.1-1.1,1.8-1.1c0.7,0,1.4,0.5,1.6,1.2l0,0
	c0.2-0.3,0.4-0.5,0.6-0.8c0.4-0.3,0.8-0.4,1.3-0.4c0.8,0,1.9,0.5,1.9,2.5v3.4h-1v-3.3c0-1.1-0.4-1.8-1.3-1.8c-0.6,0-1.1,0.4-1.2,1
	c0,0.2-0.1,0.4-0.1,0.5v3.6h-1v-3.5c0-0.9-0.4-1.6-1.2-1.6c-0.8,0.1-1.4,0.8-1.4,1.6v3.5h-1L411.7,79.6z"/>
<path class="st5" d="M426.7,78.1c0,0.4,0,0.9,0,1.6V83c0.1,1-0.2,1.9-0.8,2.7c-0.6,0.5-1.3,0.7-2.1,0.7c-0.7,0-1.3-0.1-1.9-0.5
	l0.3-0.8c0.5,0.3,1.1,0.5,1.7,0.5c1.1,0,1.9-0.6,1.9-2v-0.7l0,0c-0.4,0.6-1.1,1-1.9,1c-1.4-0.1-2.5-1.3-2.5-2.7c0,0,0-0.1,0-0.1
	c-0.2-1.5,0.9-2.9,2.5-3.1c0,0,0.1,0,0.1,0c0.7,0,1.5,0.3,1.8,1l0,0l0-0.9L426.7,78.1z M425.7,80.4c0-0.2,0-0.3-0.1-0.5
	c-0.2-0.7-0.8-1.1-1.5-1.1c-1,0-1.7,0.8-1.7,2.2c0,1.1,0.6,2.1,1.7,2.1c0.7,0,1.3-0.4,1.5-1.1c0.1-0.2,0.1-0.4,0.1-0.6L425.7,80.4z"
	/>
<path class="st5" d="M432.3,76.4v1.7h1.5v0.8h-1.5V82c0,0.7,0.2,1.1,0.8,1.1c0.2,0,0.4,0,0.6-0.1v0.8c-0.3,0.1-0.6,0.2-0.9,0.2
	c-0.4,0-0.8-0.1-1.1-0.4c-0.3-0.4-0.5-1-0.4-1.5v-3.2h-0.9v-0.8h0.9v-1.4L432.3,76.4z"/>
<path class="st5" d="M438.2,83.9l-0.1-0.7l0,0c-0.4,0.6-1.1,0.9-1.8,0.9c-0.9,0.1-1.7-0.6-1.8-1.5c0,0,0-0.1,0-0.1
	c0-1.4,1.2-2.2,3.5-2.2v-0.1c0.1-0.7-0.4-1.3-1-1.3c-0.1,0-0.2,0-0.3,0c-0.5,0-1.1,0.2-1.5,0.4l-0.2-0.7c0.6-0.4,1.2-0.5,1.9-0.5
	c1.8,0,2.2,1.2,2.2,2.4v2.2c0,0.5,0,0.9,0.1,1.4H438.2z M438,80.9c-1.1,0-2.5,0.2-2.5,1.3c0,0.5,0.3,1,0.9,1c0,0,0.1,0,0.1,0
	c0.6,0,1.2-0.4,1.4-1c0-0.1,0.1-0.2,0.1-0.3L438,80.9z"/>
<path class="st5" d="M440.7,83.9c0-0.4,0-1,0-1.5v-7h1V79l0,0c0.4-0.7,1.2-1.1,2-1.1c1.4,0,2.5,1.2,2.4,3c0,2.1-1.3,3.1-2.6,3.1
	c-0.8,0-1.6-0.4-1.9-1.1l0,0v1L440.7,83.9z M441.8,81.6c0,0.1,0,0.3,0,0.4c0.2,0.7,0.8,1.2,1.6,1.2c1.1,0,1.8-0.9,1.8-2.2
	c0-1.2-0.6-2.2-1.7-2.2c-0.8,0-1.4,0.6-1.6,1.3c0,0.1-0.1,0.3-0.1,0.4L441.8,81.6z"/>
<path class="st5" d="M447.6,75.4h1v8.5h-1V75.4z"/>
<path class="st5" d="M451,81.2c-0.1,1,0.7,1.9,1.7,2c0.1,0,0.2,0,0.3,0c0.6,0,1.1-0.1,1.6-0.3l0.2,0.8c-0.6,0.3-1.3,0.4-1.9,0.4
	c-1.5,0.1-2.8-1-2.9-2.5c0-0.1,0-0.3,0-0.4c0-1.8,1-3.1,2.7-3.1c1.4,0,2.4,1.1,2.4,2.5c0,0.1,0,0.2,0,0.2c0,0.2,0,0.3,0,0.5
	L451,81.2z M454.1,80.4c0.1-0.8-0.5-1.6-1.3-1.7c-0.1,0-0.1,0-0.2,0c-0.9,0.1-1.6,0.8-1.6,1.7H454.1z"/>
<path class="st5" d="M457.7,76.4v1.7h1.5v0.8h-1.5V82c0,0.7,0.2,1.1,0.8,1.1c0.2,0,0.4,0,0.6-0.1v0.8c-0.3,0.1-0.6,0.2-0.9,0.2
	c-0.4,0-0.8-0.1-1.1-0.4c-0.3-0.4-0.5-1-0.4-1.5v-3.2h-0.9v-0.8h0.9v-1.4L457.7,76.4z"/>
<path class="st5" d="M270.3,99.5h-2.5v-0.9h6v0.9h-2.5v7.2h-1.1V99.5z"/>
<path class="st5" d="M274.7,100.9l0.8,3c0.2,0.6,0.3,1.2,0.4,1.8l0,0c0.1-0.6,0.3-1.2,0.5-1.8l1-3h0.9l0.9,2.9
	c0.2,0.7,0.4,1.3,0.5,1.9l0,0c0.1-0.6,0.3-1.2,0.5-1.9l0.8-2.9h1l-1.9,5.8h-1l-0.9-2.8c-0.2-0.6-0.4-1.3-0.5-1.9l0,0
	c-0.1,0.6-0.3,1.3-0.5,1.9l-0.9,2.8h-1l-1.8-5.8L274.7,100.9z"/>
<path class="st5" d="M288.2,103.7c0.1,1.6-1,2.9-2.6,3.1c-0.1,0-0.2,0-0.3,0c-1.5,0-2.8-1.2-2.8-2.7c0-0.1,0-0.2,0-0.3
	c-0.1-1.6,1-2.9,2.6-3.1c0.1,0,0.2,0,0.3,0c1.5,0,2.8,1.2,2.8,2.7C288.2,103.5,288.2,103.6,288.2,103.7z M283.6,103.8
	c0,1.3,0.7,2.2,1.8,2.2s1.8-0.9,1.8-2.2c0-1-0.5-2.2-1.7-2.2S283.6,102.7,283.6,103.8L283.6,103.8z"/>
<path class="st5" d="M292,105.5c0.5,0.3,1.1,0.5,1.7,0.5c1.4,0,1.8-0.9,1.8-1.5c0-1.1-1-1.6-2-1.6h-0.6v-0.8h0.6
	c0.8,0,1.7-0.4,1.7-1.3c0-0.6-0.4-1.2-1.4-1.2c-0.6,0-1.1,0.2-1.6,0.5l-0.3-0.8c0.6-0.4,1.3-0.6,2-0.6c1.5,0,2.2,0.9,2.2,1.9
	c0,0.9-0.6,1.6-1.4,1.8l0,0c1,0.1,1.7,1,1.7,2c0,1.2-1,2.3-2.8,2.3c-0.7,0-1.4-0.2-2-0.5L292,105.5z"/>
<path class="st5" d="M302.4,99.6c-0.3,0-0.5,0-0.8,0c-1.4,0.2-2.5,1.3-2.7,2.8l0,0c0.8-1,2.3-1.2,3.3-0.4c0.6,0.5,1,1.2,0.9,2
	c0.1,1.4-1,2.7-2.5,2.7c0,0-0.1,0-0.1,0c-1.7,0-2.8-1.3-2.8-3.3c0-1.3,0.4-2.6,1.3-3.5c0.7-0.6,1.6-1.1,2.5-1.2
	c0.3,0,0.5-0.1,0.8-0.1L302.4,99.6z M302.1,104.1c0.1-0.9-0.5-1.7-1.4-1.8c-0.1,0-0.2,0-0.3,0c-0.7,0-1.2,0.4-1.5,1
	c-0.1,0.1-0.1,0.3-0.1,0.5c0,1.3,0.6,2.2,1.7,2.2C301.4,106,302,105.2,302.1,104.1L302.1,104.1z"/>
<path class="st5" d="M306.8,103.1v0.8h-3v-0.8H306.8z"/>
<path class="st5" d="M308.1,102.5c0-0.6,0-1.1,0-1.6h0.9v0.9l0,0c0.4-0.7,1.1-1.1,1.8-1.1c0.7,0,1.4,0.5,1.6,1.2l0,0
	c0.2-0.3,0.4-0.6,0.6-0.8c0.4-0.3,0.8-0.4,1.3-0.4c0.8,0,1.9,0.5,1.9,2.5v3.4h-1v-3.3c0-1.1-0.4-1.8-1.3-1.8c-0.6,0-1.1,0.4-1.2,1
	c-0.1,0.2-0.1,0.3-0.1,0.5v3.6h-1v-3.5c0-0.9-0.4-1.6-1.2-1.6c-0.6,0-1.1,0.5-1.3,1.1c-0.1,0.2-0.1,0.3-0.1,0.5v3.5h-1L308.1,102.5z
	"/>
<path class="st5" d="M323.1,100.9c0,0.4,0,0.9,0,1.6v3.4c0.1,1-0.2,1.9-0.8,2.6c-0.6,0.5-1.3,0.7-2.1,0.7c-0.7,0-1.3-0.1-1.9-0.5
	l0.3-0.8c0.5,0.3,1.1,0.5,1.7,0.4c1.1,0,1.9-0.6,1.9-2v-0.6l0,0c-0.4,0.6-1.1,1-1.8,1c-1.4-0.1-2.5-1.3-2.5-2.7c0,0,0-0.1,0-0.1
	c-0.2-1.5,0.9-2.9,2.5-3.1c0.1,0,0.1,0,0.2,0c0.7,0,1.5,0.3,1.8,1l0,0v-0.9L323.1,100.9z M322,103.2c0-0.2,0-0.3-0.1-0.5
	c-0.2-0.7-0.8-1.1-1.5-1.1c-1,0-1.7,0.9-1.7,2.2c0,1.1,0.6,2.1,1.7,2.1c0.7,0,1.3-0.4,1.5-1.1c0.1-0.2,0.1-0.4,0.1-0.6L322,103.2z"
	/>
<path class="st5" d="M327.3,106.7c0-0.4,0-1,0-1.5v-7h1v3.6l0,0c0.4-0.7,1.2-1.1,2-1.1c1.4,0,2.5,1.2,2.5,3c0,2.1-1.3,3.1-2.6,3.1
	c-0.8,0-1.6-0.4-1.9-1.1l0,0v1L327.3,106.7z M328.4,104.4c0,0.1,0,0.3,0,0.4c0.2,0.7,0.8,1.2,1.6,1.2c1.1,0,1.8-0.9,1.8-2.2
	c0-1.2-0.6-2.2-1.7-2.2c-0.8,0-1.4,0.6-1.6,1.3c0,0.1-0.1,0.3-0.1,0.4L328.4,104.4z"/>
<path class="st5" d="M334.2,102.7c0-0.7,0-1.3,0-1.8h0.9v1.1h0c0.2-0.7,0.8-1.2,1.6-1.3c0.1,0,0.2,0,0.3,0v1c-0.1,0-0.2,0-0.4,0
	c-0.7,0-1.4,0.6-1.4,1.4c0,0.2-0.1,0.3,0,0.5v3.1h-1L334.2,102.7z"/>
<path class="st5" d="M341.2,106.7l-0.1-0.7l0,0c-0.4,0.6-1.1,0.9-1.8,0.9c-0.9,0.1-1.7-0.6-1.8-1.5c0,0,0-0.1,0-0.1
	c0-1.4,1.2-2.2,3.5-2.2v-0.1c0.1-0.7-0.4-1.2-1-1.3c-0.1,0-0.2,0-0.3,0c-0.5,0-1.1,0.1-1.5,0.4l-0.2-0.7c0.6-0.3,1.2-0.5,1.9-0.5
	c1.8,0,2.2,1.2,2.2,2.4v2.2c0,0.5,0,0.9,0.1,1.4L341.2,106.7z M341.1,103.7c-1.1,0-2.5,0.2-2.5,1.3c0,0.5,0.3,1,0.9,1
	c0,0,0.1,0,0.1,0c0.6,0,1.2-0.4,1.4-1c0-0.1,0.1-0.2,0.1-0.3L341.1,103.7z"/>
<path class="st5" d="M343.8,102.5c0-0.6,0-1.1,0-1.6h0.9l0.1,1l0,0c0.4-0.7,1.1-1.2,1.9-1.1c0.8,0,2,0.5,2,2.5v3.5h-1v-3.3
	c0-0.9-0.4-1.7-1.3-1.7c-0.7,0-1.2,0.4-1.4,1.1c-0.1,0.2-0.1,0.3-0.1,0.5v3.5h-1.1L343.8,102.5z"/>
<path class="st5" d="M355.5,98.2v7c0,0.5,0,1.1,0,1.5h-0.9l0-1l0,0c-0.4,0.7-1.2,1.2-2,1.1c-1.4,0-2.5-1.2-2.5-2.9
	c0-1.9,1.2-3.1,2.6-3.1c0.7,0,1.4,0.3,1.8,0.9l0,0v-3.5H355.5z M354.4,103.2c0-0.1,0-0.3,0-0.4c-0.2-0.7-0.8-1.2-1.5-1.2
	c-1.1,0-1.7,1-1.7,2.2s0.6,2.1,1.7,2.1c0.9,0,1.6-0.8,1.6-1.7L354.4,103.2z"/>
<path class="st5" d="M357.8,104c-0.1,1,0.7,1.9,1.7,2c0.1,0,0.2,0,0.3,0c0.6,0,1.1-0.1,1.6-0.3l0.2,0.8c-0.6,0.3-1.3,0.4-1.9,0.4
	c-1.5,0.1-2.8-1-2.9-2.5c0-0.1,0-0.3,0-0.4c0-1.8,1-3.1,2.7-3.1c1.4,0,2.4,1.1,2.4,2.5c0,0.1,0,0.2,0,0.2c0,0.2,0,0.3,0,0.5
	L357.8,104z M360.9,103.2c0.1-0.8-0.4-1.6-1.3-1.7c-0.1,0-0.1,0-0.2,0c-0.9,0.1-1.6,0.8-1.6,1.7H360.9z"/>
<path class="st5" d="M368.3,98.2v7c0,0.5,0,1.1,0,1.5h-0.9v-1l0,0c-0.4,0.7-1.2,1.2-2,1.1c-1.4,0-2.5-1.2-2.5-2.9
	c0-1.9,1.2-3.1,2.6-3.1c0.7,0,1.4,0.3,1.8,0.9l0,0v-3.5H368.3z M367.2,103.2c0-0.1,0-0.3,0-0.4c-0.2-0.7-0.8-1.2-1.5-1.2
	c-1.1,0-1.7,1-1.7,2.2s0.6,2.1,1.7,2.1c0.9,0,1.6-0.8,1.6-1.7L367.2,103.2z"/>
<path class="st5" d="M372.6,102.5c0-0.6,0-1.1,0-1.6h0.9v0.9l0,0c0.4-0.7,1.1-1.1,1.8-1.1c0.7,0,1.4,0.5,1.6,1.2l0,0
	c0.2-0.3,0.4-0.6,0.6-0.8c0.4-0.3,0.8-0.4,1.3-0.4c0.8,0,1.9,0.5,1.9,2.5v3.4h-1v-3.3c0-1.1-0.4-1.8-1.3-1.8c-0.6,0-1.1,0.4-1.2,1
	c-0.1,0.2-0.1,0.4-0.1,0.5v3.6h-1v-3.5c0-0.9-0.4-1.6-1.2-1.6c-0.6,0-1.1,0.5-1.3,1.1c-0.1,0.2-0.1,0.3-0.1,0.5v3.5h-1L372.6,102.5z
	"/>
<path class="st5" d="M383.2,104c-0.1,1,0.7,1.9,1.7,2c0.1,0,0.2,0,0.3,0c0.6,0,1.1-0.1,1.6-0.3l0.2,0.8c-0.6,0.3-1.3,0.4-1.9,0.4
	c-1.5,0.1-2.8-1-2.9-2.5c0-0.1,0-0.3,0-0.4c0-1.8,1-3.1,2.7-3.1c1.4,0,2.4,1.1,2.4,2.5c0,0.1,0,0.2,0,0.2c0,0.2,0,0.3,0,0.5
	L383.2,104z M386.2,103.2c0.1-0.8-0.4-1.6-1.3-1.7c-0.1,0-0.1,0-0.2,0c-0.9,0.1-1.6,0.8-1.6,1.7H386.2z"/>
<path class="st5" d="M389.9,99.2v1.7h1.5v0.8h-1.5v3.1c0,0.7,0.2,1.1,0.8,1.1c0.2,0,0.4,0,0.6-0.1v0.8c-0.3,0.1-0.6,0.1-0.9,0.1
	c-0.4,0-0.8-0.1-1.1-0.4c-0.3-0.4-0.5-1-0.4-1.5v-3.2h-0.9v-0.8h0.9v-1.4L389.9,99.2z"/>
<path class="st5" d="M392.6,98.2h1v3.6l0,0c0.2-0.3,0.4-0.6,0.8-0.7c0.3-0.2,0.7-0.3,1.1-0.3c0.8,0,2,0.5,2,2.5v3.4h-1.1v-3.3
	c0-0.9-0.4-1.7-1.3-1.7c-0.7,0-1.2,0.4-1.4,1.1c-0.1,0.2-0.1,0.3-0.1,0.5v3.5h-1L392.6,98.2z"/>
<path class="st5" d="M399.4,100.9l1.3,3.4c0.1,0.4,0.3,0.8,0.4,1.2l0,0c0.1-0.3,0.2-0.8,0.4-1.2l1.1-3.4h1.1l-1.6,4.1
	c-0.8,2-1.3,3-2,3.6c-0.4,0.3-0.8,0.6-1.3,0.7l-0.3-0.9c0.3-0.1,0.6-0.3,0.9-0.5c0.4-0.3,0.7-0.7,0.9-1.2c0-0.1,0.1-0.2,0.1-0.2
	c0-0.1,0-0.2-0.1-0.3l-2.1-5.3L399.4,100.9z"/>
<path class="st5" d="M404.7,98.2h1.1v8.5h-1.1V98.2z"/>
<path class="st5" d="M407.5,102.8c0-0.7,0-1.3,0-1.9h0.9v1l0,0c0.4-0.7,1.2-1.2,2.1-1.1c1.4,0,2.5,1.2,2.5,3c0,2.1-1.3,3.1-2.6,3.1
	c-0.7,0-1.4-0.3-1.8-0.9l0,0v3.2h-1L407.5,102.8z M408.5,104.3c0,0.1,0,0.3,0,0.4c0.2,0.7,0.8,1.2,1.6,1.2c1.1,0,1.8-0.9,1.8-2.2
	c0-1.2-0.6-2.2-1.7-2.2c-0.8,0-1.4,0.6-1.6,1.3c0,0.1-0.1,0.3-0.1,0.4L408.5,104.3z"/>
<path class="st5" d="M414.4,98.2h1.1v3.6l0,0c0.2-0.3,0.4-0.6,0.8-0.7c0.3-0.2,0.7-0.3,1.1-0.3c0.8,0,2,0.5,2,2.5v3.4h-1v-3.3
	c0-0.9-0.4-1.7-1.3-1.7c-0.7,0-1.2,0.4-1.4,1.1c-0.1,0.2-0.1,0.3-0.1,0.5v3.5h-1.1L414.4,98.2z"/>
<path class="st5" d="M421.6,104c-0.1,1,0.7,1.9,1.7,2c0.1,0,0.2,0,0.3,0c0.6,0,1.1-0.1,1.6-0.3l0.2,0.8c-0.6,0.3-1.3,0.4-1.9,0.4
	c-1.5,0.1-2.8-1-2.9-2.5c0-0.1,0-0.3,0-0.4c0-1.8,1-3.1,2.7-3.1c1.4,0,2.4,1.1,2.4,2.5c0,0.1,0,0.2,0,0.2c0,0.2,0,0.3,0,0.5
	L421.6,104z M424.7,103.2c0.1-0.8-0.5-1.6-1.3-1.7c-0.1,0-0.1,0-0.2,0c-0.9,0.1-1.6,0.8-1.6,1.7H424.7z"/>
<path class="st5" d="M427,102.5c0-0.6,0-1.1,0-1.6h0.9l0.1,1l0,0c0.4-0.7,1.1-1.1,1.9-1.1c0.8,0,2,0.5,2,2.5v3.5h-1.1v-3.3
	c0-0.9-0.4-1.7-1.3-1.7c-0.7,0-1.2,0.4-1.4,1.1c-0.1,0.2-0.1,0.3-0.1,0.5v3.5h-1L427,102.5z"/>
<path class="st5" d="M434.9,99.3c0,0.3-0.3,0.6-0.6,0.6c0,0,0,0-0.1,0c-0.3,0-0.6-0.3-0.6-0.6c0,0,0,0,0,0c0-0.4,0.3-0.7,0.6-0.7
	c0,0,0,0,0,0C434.6,98.6,434.9,98.9,434.9,99.3C434.9,99.2,434.9,99.2,434.9,99.3z M433.7,106.7v-5.8h1v5.8H433.7z"/>
<path class="st5" d="M441.5,98.2v7c0,0.5,0,1.1,0,1.5h-0.9l0-1l0,0c-0.4,0.7-1.2,1.2-2,1.1c-1.4,0-2.5-1.2-2.5-2.9
	c0-1.9,1.2-3.1,2.6-3.1c0.7,0,1.4,0.3,1.8,0.9l0,0v-3.5H441.5z M440.5,103.2c0-0.1,0-0.3,0-0.4c-0.2-0.7-0.8-1.2-1.5-1.2
	c-1.1,0-1.7,1-1.7,2.2s0.6,2.1,1.7,2.1c0.9,0,1.6-0.8,1.6-1.7L440.5,103.2z"/>
<path class="st5" d="M446.5,106.7l-0.1-0.7l0,0c-0.4,0.6-1.1,0.9-1.8,0.9c-0.9,0.1-1.7-0.6-1.8-1.5c0,0,0-0.1,0-0.1
	c0-1.4,1.2-2.2,3.5-2.2v-0.1c0.1-0.7-0.4-1.3-1-1.3c-0.1,0-0.2,0-0.3,0c-0.5,0-1.1,0.1-1.5,0.4l-0.2-0.7c0.6-0.3,1.2-0.5,1.9-0.5
	c1.8,0,2.2,1.2,2.2,2.4v2.2c0,0.5,0,0.9,0.1,1.4H446.5z M446.3,103.7c-1.1,0-2.5,0.2-2.5,1.3c0,0.5,0.4,1,0.9,1c0,0,0.1,0,0.1,0
	c0.6,0,1.2-0.4,1.4-1c0-0.1,0.1-0.2,0.1-0.3V103.7z"/>
<path class="st5" d="M450.3,99.2v1.7h1.5v0.8h-1.5v3.1c0,0.7,0.2,1.1,0.8,1.1c0.2,0,0.4,0,0.6-0.1v0.8c-0.3,0.1-0.6,0.1-0.9,0.1
	c-0.4,0-0.8-0.1-1.1-0.4c-0.3-0.4-0.5-1-0.4-1.5v-3.2h-0.9v-0.8h0.9v-1.4L450.3,99.2z"/>
<path class="st5" d="M453.5,104c-0.1,1,0.7,1.9,1.7,2c0.1,0,0.2,0,0.3,0c0.6,0,1.1-0.1,1.6-0.3l0.2,0.8c-0.6,0.3-1.3,0.4-1.9,0.4
	c-1.5,0.1-2.8-1-2.9-2.5c0-0.1,0-0.3,0-0.4c0-1.8,1-3.1,2.7-3.1c1.4,0,2.4,1.1,2.4,2.5c0,0.1,0,0.2,0,0.2c0,0.2,0,0.3,0,0.5
	L453.5,104z M456.6,103.2c0.1-0.8-0.5-1.6-1.3-1.7c-0.1,0-0.1,0-0.2,0c-0.9,0.1-1.6,0.8-1.6,1.7H456.6z"/>
<path class="st5" d="M462.5,98.6v3.4h3.9v-3.4h1.1v8.1h-1.1v-3.8h-3.9v3.8h-1v-8.1H462.5z"/>
<path class="st5" d="M475,106.4c-0.7,0.3-1.4,0.4-2.1,0.4c-2.1,0.1-3.9-1.5-4-3.5c0-0.2,0-0.4,0-0.6c-0.1-2.2,1.5-4.1,3.7-4.2
	c0.2,0,0.3,0,0.5,0c0.7,0,1.3,0.1,1.9,0.4l-0.2,0.8c-0.5-0.2-1.1-0.3-1.6-0.3c-1.7-0.1-3.1,1.2-3.2,2.8c0,0.2,0,0.3,0,0.5
	c-0.2,1.6,1,3.1,2.6,3.2c0.2,0,0.3,0,0.5,0c0.6,0,1.2-0.1,1.7-0.3L475,106.4z"/>
<path class="st5" d="M476.3,98.2h1v8.5h-1V98.2z"/>
<path class="st5" d="M269.3,118.4c-0.1,1,0.7,1.9,1.7,2c0.1,0,0.2,0,0.3,0c0.6,0,1.1-0.1,1.6-0.3l0.2,0.8c-0.6,0.3-1.3,0.4-1.9,0.4
	c-1.5,0.1-2.8-1-2.9-2.5c0-0.1,0-0.3,0-0.4c0-1.8,1-3.1,2.7-3.1c1.4,0,2.4,1.1,2.4,2.5c0,0.1,0,0.2,0,0.2c0,0.2,0,0.3,0,0.5
	L269.3,118.4z M272.4,117.6c0.1-0.8-0.5-1.6-1.3-1.7c-0.1,0-0.1,0-0.2,0c-0.9,0.1-1.6,0.8-1.6,1.7H272.4z"/>
<path class="st5" d="M275.2,115.3l0.8,1.2c0.2,0.3,0.4,0.6,0.6,0.9l0,0c0.2-0.3,0.4-0.6,0.6-1l0.8-1.2h1.1l-2,2.8l2,3H278l-0.9-1.3
	c-0.2-0.3-0.4-0.7-0.6-1l0,0c-0.2,0.4-0.4,0.7-0.6,1l-0.8,1.3h-1.2l2.1-3l-2-2.8L275.2,115.3z"/>
<path class="st5" d="M281.7,113.6v1.7h1.5v0.8h-1.5v3.1c0,0.7,0.2,1.1,0.8,1.1c0.2,0,0.4,0,0.6-0.1v0.8c-0.3,0.1-0.6,0.1-0.9,0.1
	c-0.4,0-0.8-0.1-1.1-0.4c-0.3-0.4-0.5-1-0.4-1.5v-3.2h-0.9v-0.8h0.9v-1.4L281.7,113.6z"/>
<path class="st5" d="M284.9,118.4c-0.1,1,0.7,1.9,1.7,2c0.1,0,0.2,0,0.3,0c0.6,0,1.1-0.1,1.6-0.3l0.2,0.8c-0.6,0.3-1.3,0.4-1.9,0.4
	c-1.5,0.1-2.8-1-2.9-2.5c0-0.1,0-0.3,0-0.4c0-1.8,1-3.1,2.7-3.1c1.4,0,2.4,1.1,2.4,2.5c0,0.1,0,0.2,0,0.2c0,0.2,0,0.3,0,0.5
	L284.9,118.4z M288,117.6c0.1-0.8-0.4-1.6-1.3-1.7c-0.1,0-0.1,0-0.2,0c-0.9,0.1-1.6,0.8-1.6,1.7H288z"/>
<path class="st5" d="M290.4,116.9c0-0.6,0-1.1,0-1.6h0.9l0.1,1l0,0c0.4-0.7,1.1-1.1,1.9-1.1c0.8,0,2,0.5,2,2.5v3.5h-1v-3.3
	c0-0.9-0.4-1.7-1.3-1.7c-0.7,0-1.2,0.4-1.4,1.1c-0.1,0.2-0.1,0.3-0.1,0.5v3.5h-1.1L290.4,116.9z"/>
<path class="st5" d="M302,112.6v7c0,0.5,0,1.1,0,1.5h-0.9l0-1l0,0c-0.4,0.7-1.2,1.2-2,1.1c-1.4,0-2.5-1.2-2.5-3
	c0-1.9,1.2-3.1,2.6-3.1c0.7,0,1.4,0.3,1.8,0.9l0,0v-3.4H302z M301,117.6c0-0.1,0-0.3,0-0.4c-0.2-0.7-0.8-1.2-1.5-1.2
	c-1.1,0-1.7,1-1.7,2.2s0.6,2.1,1.7,2.1c0.9,0,1.6-0.8,1.6-1.7L301,117.6z"/>
<path class="st5" d="M304.4,118.4c-0.1,1,0.7,1.9,1.7,2c0.1,0,0.2,0,0.3,0c0.6,0,1.1-0.1,1.6-0.3l0.2,0.8c-0.6,0.3-1.3,0.4-1.9,0.4
	c-1.5,0.1-2.8-1-2.9-2.5c0-0.1,0-0.3,0-0.4c0-1.8,1-3.1,2.7-3.1c1.4,0,2.4,1.1,2.4,2.5c0,0.1,0,0.2,0,0.2c0,0.2,0,0.3,0,0.5
	L304.4,118.4z M307.5,117.6c0.1-0.8-0.4-1.6-1.3-1.7c-0.1,0-0.1,0-0.2,0c-0.9,0.1-1.6,0.8-1.6,1.7H307.5z"/>
<path class="st5" d="M314.8,112.6v7c0,0.5,0,1.1,0,1.5h-0.9l0-1l0,0c-0.4,0.7-1.2,1.2-2,1.1c-1.4,0-2.5-1.2-2.5-3
	c0-1.9,1.2-3.1,2.6-3.1c0.7,0,1.4,0.3,1.8,0.9l0,0v-3.4H314.8z M313.7,117.6c0-0.1,0-0.3,0-0.4c-0.2-0.7-0.8-1.2-1.5-1.2
	c-1.1,0-1.7,1-1.7,2.2s0.6,2.1,1.7,2.1c0.9,0,1.6-0.8,1.6-1.7L313.7,117.6z"/>
<path class="st5" d="M319,117.5v0.8h-3v-0.8H319z"/>
<path class="st5" d="M320.2,117.1c0-0.7,0-1.3,0-1.8h0.9v1.1h0c0.2-0.7,0.9-1.2,1.6-1.3c0.1,0,0.2,0,0.3,0v1c-0.1,0-0.2,0-0.4,0
	c-0.7,0-1.4,0.6-1.4,1.4c0,0.2,0,0.3,0,0.5v3.1h-1L320.2,117.1z"/>
<path class="st5" d="M324.6,118.4c-0.1,1,0.7,1.9,1.7,2c0.1,0,0.2,0,0.3,0c0.5,0,1.1-0.1,1.6-0.3l0.2,0.8c-0.6,0.3-1.3,0.4-1.9,0.4
	c-1.5,0.1-2.8-1-2.9-2.5c0-0.1,0-0.3,0-0.4c0-1.8,1-3.1,2.7-3.1c1.4,0,2.4,1.1,2.4,2.5c0,0.1,0,0.2,0,0.2c0,0.2,0,0.3,0,0.5
	L324.6,118.4z M327.7,117.6c0.1-0.8-0.5-1.6-1.3-1.7c-0.1,0-0.1,0-0.2,0c-0.9,0.1-1.6,0.8-1.6,1.7H327.7z"/>
<path class="st5" d="M330.1,112.6h1v8.5h-1V112.6z"/>
<path class="st5" d="M333.5,118.4c-0.1,1,0.7,1.9,1.7,2c0.1,0,0.2,0,0.3,0c0.6,0,1.1-0.1,1.6-0.3l0.2,0.8c-0.6,0.3-1.3,0.4-1.9,0.4
	c-1.5,0.1-2.8-1-2.9-2.5c0-0.1,0-0.3,0-0.4c0-1.8,1-3.1,2.7-3.1c1.4,0,2.4,1.1,2.4,2.5c0,0.1,0,0.2,0,0.2c0,0.2,0,0.3,0,0.5
	L333.5,118.4z M336.6,117.6c0.1-0.8-0.4-1.6-1.3-1.7c-0.1,0-0.1,0-0.2,0c-0.9,0.1-1.6,0.8-1.6,1.7H336.6z"/>
<path class="st5" d="M342.1,121.1l-0.1-0.7l0,0c-0.4,0.6-1.1,0.9-1.8,0.9c-0.9,0.1-1.7-0.6-1.8-1.5c0,0,0-0.1,0-0.1
	c0-1.4,1.2-2.2,3.5-2.2v-0.1c0.1-0.7-0.4-1.3-1-1.3c-0.1,0-0.2,0-0.3,0c-0.5,0-1.1,0.1-1.5,0.4l-0.2-0.7c0.6-0.3,1.2-0.5,1.9-0.5
	c1.8,0,2.2,1.2,2.2,2.4v2.2c0,0.5,0,0.9,0.1,1.4H342.1z M342,118.1c-1.1,0-2.5,0.2-2.5,1.3c0,0.5,0.4,1,0.9,1c0,0,0.1,0,0.1,0
	c0.6,0,1.2-0.4,1.4-1c0-0.1,0.1-0.2,0.1-0.3V118.1z"/>
<path class="st5" d="M344.5,120c0.4,0.3,0.9,0.4,1.4,0.4c0.8,0,1.1-0.4,1.1-0.9s-0.3-0.8-1.1-1.1c-1-0.4-1.5-0.9-1.5-1.6
	c0-1,0.9-1.7,1.8-1.7c0.1,0,0.1,0,0.2,0c0.5,0,1,0.1,1.4,0.4l-0.3,0.8c-0.4-0.2-0.8-0.3-1.2-0.3c-0.6,0-1,0.4-1,0.8s0.4,0.7,1.1,1
	c1,0.4,1.5,0.9,1.5,1.8c0,1-0.8,1.7-2.2,1.7c-0.6,0-1.1-0.1-1.6-0.4L344.5,120z"/>
<path class="st5" d="M350,118.4c-0.1,1,0.7,1.9,1.7,2c0.1,0,0.2,0,0.3,0c0.5,0,1.1-0.1,1.6-0.3l0.2,0.8c-0.6,0.3-1.3,0.4-1.9,0.4
	c-1.5,0.1-2.8-1-2.9-2.5c0-0.1,0-0.3,0-0.4c0-1.8,1-3.1,2.7-3.1c1.4,0,2.4,1.1,2.4,2.5c0,0.1,0,0.2,0,0.2c0,0.2,0,0.3,0,0.5
	L350,118.4z M353.1,117.6c0.1-0.8-0.5-1.6-1.3-1.7c-0.1,0-0.1,0-0.2,0c-0.9,0.1-1.6,0.8-1.6,1.7H353.1z"/>
<path class="st5" d="M359.3,113.6v1.7h1.5v0.8h-1.5v3.1c0,0.7,0.2,1.1,0.8,1.1c0.2,0,0.4,0,0.6-0.1l0,0.8c-0.3,0.1-0.6,0.1-0.9,0.1
	c-0.4,0-0.8-0.1-1.1-0.4c-0.3-0.4-0.5-1-0.4-1.5v-3.2h-0.9v-0.8h0.9v-1.4L359.3,113.6z"/>
<path class="st5" d="M365.2,121.1l-0.1-0.7l0,0c-0.4,0.6-1.1,0.9-1.8,0.9c-0.9,0.1-1.7-0.6-1.8-1.5c0,0,0-0.1,0-0.1
	c0-1.4,1.2-2.2,3.5-2.2v-0.1c0.1-0.7-0.4-1.3-1-1.3c-0.1,0-0.2,0-0.3,0c-0.5,0-1.1,0.1-1.5,0.4l-0.2-0.7c0.6-0.3,1.2-0.5,1.9-0.5
	c1.8,0,2.2,1.2,2.2,2.4v2.2c0,0.5,0,0.9,0.1,1.4H365.2z M365,118.1c-1.1,0-2.5,0.2-2.5,1.3c0,0.5,0.3,1,0.9,1c0,0,0.1,0,0.1,0
	c0.6,0,1.2-0.4,1.4-1c0-0.1,0.1-0.2,0.1-0.3L365,118.1z"/>
<path class="st5" d="M367.7,121.1c0-0.4,0-1,0-1.5v-7h1v3.6l0,0c0.4-0.7,1.2-1.1,2-1.1c1.4,0,2.5,1.2,2.4,3c0,2.1-1.3,3.1-2.6,3.1
	c-0.8,0-1.6-0.4-1.9-1.1l0,0l0,1L367.7,121.1z M368.8,118.8c0,0.1,0,0.3,0,0.4c0.2,0.7,0.8,1.2,1.6,1.2c1.1,0,1.8-0.9,1.8-2.2
	c0-1.2-0.6-2.2-1.7-2.2c-0.8,0-1.4,0.6-1.6,1.3c0,0.1-0.1,0.3-0.1,0.4L368.8,118.8z"/>
<path class="st5" d="M374.6,112.6h1v8.5h-1V112.6z"/>
<path class="st5" d="M378,118.4c-0.1,1,0.7,1.9,1.7,2c0.1,0,0.2,0,0.3,0c0.6,0,1.1-0.1,1.6-0.3l0.2,0.8c-0.6,0.3-1.3,0.4-1.9,0.4
	c-1.5,0.1-2.8-1-2.9-2.5c0-0.1,0-0.3,0-0.4c0-1.8,1-3.1,2.7-3.1c1.4,0,2.4,1.1,2.4,2.5c0,0.1,0,0.2,0,0.2c0,0.2,0,0.3,0,0.5
	L378,118.4z M381.1,117.6c0.1-0.8-0.4-1.6-1.3-1.7c-0.1,0-0.1,0-0.2,0c-0.9,0.1-1.6,0.8-1.6,1.7H381.1z"/>
<path class="st5" d="M384.7,113.6v1.7h1.5v0.8h-1.5v3.1c0,0.7,0.2,1.1,0.8,1.1c0.2,0,0.4,0,0.6-0.1v0.8c-0.3,0.1-0.6,0.1-0.9,0.1
	c-0.4,0-0.8-0.1-1.1-0.4c-0.3-0.4-0.5-1-0.4-1.5v-3.2h-0.9v-0.8h0.9v-1.4L384.7,113.6z"/>
<path class="st5" d="M387.2,120c0.4,0.3,0.9,0.4,1.4,0.4c0.8,0,1.1-0.4,1.1-0.9s-0.3-0.8-1.1-1.1c-1-0.4-1.5-0.9-1.5-1.6
	c0-1,0.9-1.8,1.9-1.7c0,0,0.1,0,0.1,0c0.5,0,1,0.1,1.4,0.4l-0.3,0.8c-0.4-0.2-0.8-0.3-1.2-0.3c-0.6,0-1,0.4-1,0.8s0.4,0.7,1.1,1
	c1,0.4,1.5,0.9,1.5,1.8c0,1-0.8,1.7-2.2,1.7c-0.6,0-1.1-0.1-1.6-0.4L387.2,120z"/>
<path class="st5" d="M1.2,296v-2.1l4-2.2l-4-2.2v-2.2h9.8v2H4.8l4.1,2.3l0,0l-4,2.3h6.2v2L1.2,296z"/>
<path class="st5" d="M7.4,285.9H7.3c-2.2,0-3.9-1.4-3.9-3.3c0-2.1,1.8-3.2,4-3.2h0.6v4.5c0.9-0.1,1.5-0.8,1.5-1.6
	c0-0.6-0.3-1.2-0.7-1.6l1.2-1c0.8,0.7,1.2,1.6,1.2,2.7c0,1.9-1.6,3.5-3.5,3.5C7.6,285.9,7.5,285.9,7.4,285.9z M6.7,281.3
	c-1,0.1-1.7,0.5-1.7,1.3s0.6,1.2,1.7,1.3V281.3z"/>
<path class="st5" d="M9.2,277.8H5.2v0.7H3.5v-0.8H1.6v-2h1.9v-1.5h1.7v1.5h3.6c0.4,0,0.6-0.2,0.6-0.6c0-0.3-0.1-0.6-0.2-0.9h1.6
	c0.3,0.4,0.4,1,0.4,1.5C11.2,277,10.7,277.8,9.2,277.8z"/>
<path class="st5" d="M0.9,273v-2h3.6c-0.7-0.4-1.1-1.1-1.1-1.9c0-1.4,1-2.2,2.5-2.2h5.1v2H6.5c-0.9,0-1.3,0.4-1.3,1.1
	s0.5,1.1,1.3,1.1h4.5v2L0.9,273z"/>
<path class="st5" d="M3.5,261.2v-2l7.6,2.5c1.5,0.5,2.1,1.1,2.1,2.3c0,0.6-0.2,1.1-0.5,1.6l-1.5-0.5c0.2-0.2,0.2-0.5,0.2-0.8
	c0-0.3-0.2-0.6-0.5-0.6l-7.5,2.5V264l5-1.4L3.5,261.2z"/>
<path class="st5" d="M0.9,258.1v-2h10.1v2H0.9z"/>
<path class="st5" d="M3.5,254.4v-2h1c-0.7-0.4-1.2-1.2-1.2-2c0-1.5,1.2-2.9,3.8-2.9h0.2c2.6,0,3.8,1.4,3.8,2.9c0,0.8-0.4,1.6-1.1,2
	h3.1v2H3.5z M7.4,249.6H7.2c-1.3,0-2.1,0.6-2.1,1.5s0.8,1.5,2.1,1.5h0.1c1.3,0,2.1-0.6,2.1-1.5S8.6,249.6,7.4,249.6z"/>
<path class="st5" d="M0.9,246.2v-2h3.6c-0.7-0.4-1.1-1.1-1.1-1.9c0-1.4,1-2.2,2.5-2.2h5.1v2H6.5c-0.9,0-1.3,0.4-1.3,1.1
	s0.5,1.1,1.3,1.1h4.5v2L0.9,246.2z"/>
<path class="st5" d="M7.4,238.9H7.3c-2.2,0-3.9-1.4-3.9-3.3c0-2.1,1.8-3.2,4-3.2h0.6v4.5c0.9,0,1.5-0.8,1.5-1.6
	c0-0.6-0.3-1.2-0.7-1.6l1.2-1c0.8,0.7,1.2,1.7,1.2,2.7c0,1.9-1.6,3.5-3.5,3.5C7.6,238.9,7.5,238.9,7.4,238.9z M6.7,234.3
	c-1,0.1-1.7,0.5-1.7,1.3s0.6,1.2,1.7,1.3V234.3z"/>
<path class="st5" d="M3.5,231.1v-2h1c-0.7-0.4-1.1-1.1-1.1-1.9c0-1.4,1-2.2,2.5-2.2h5.1v2H6.5c-0.9,0-1.3,0.4-1.3,1.1
	s0.5,1.1,1.3,1.1h4.5v2L3.5,231.1z"/>
<path class="st5" d="M0.9,223.4v-2.1h1.8v2.1H0.9z M3.5,223.4v-2h7.5v2H3.5z"/>
<path class="st5" d="M7.4,219.9H7.2c-2.6,0-3.8-1.4-3.8-2.9c0-0.8,0.4-1.6,1.1-2H0.9v-2h10.1v2h-1c0.7,0.4,1.2,1.2,1.2,2
	C11.2,218.6,10,219.9,7.4,219.9z M7.4,215H7.2c-1.3,0-2.1,0.6-2.1,1.5s0.8,1.4,2.1,1.4h0.1c1.3,0,2.1-0.6,2.1-1.4S8.6,215,7.4,215
	L7.4,215z"/>
<path class="st5" d="M8.9,211.8L8.9,211.8c-1.7,0-2.5-1.1-2.5-2.6c0-0.5,0.1-1.1,0.3-1.6H6.5c-0.7-0.1-1.3,0.4-1.3,1.1
	c0,0.1,0,0.2,0,0.3c0,0.6,0.2,1.2,0.4,1.7l-1.5,0.5c-0.4-0.8-0.6-1.7-0.6-2.6c-0.2-1.5,0.8-2.9,2.3-3.1c0.2,0,0.5,0,0.7,0h4.6v2
	h-0.8c0.6,0.5,1,1.2,1,1.9c0,1.2-0.9,2.2-2.1,2.2C9,211.8,9,211.8,8.9,211.8z M8.6,207.6H8c-0.2,0.3-0.2,0.7-0.2,1.1
	c0,0.7,0.4,1.2,1.1,1.2l0,0c0.5,0,0.9-0.3,0.9-0.8c0-0.1,0-0.1,0-0.2C9.8,208.3,9.3,207.7,8.6,207.6C8.6,207.6,8.6,207.6,8.6,207.6z
	"/>
<path class="st5" d="M9.2,203.9H5.2v0.8H3.5v-0.8H1.6v-2h1.9v-1.5h1.7v1.5h3.6c0.4,0,0.6-0.2,0.6-0.6c0-0.3-0.1-0.6-0.2-0.9h1.6
	c0.3,0.4,0.4,1,0.4,1.5C11.2,203.1,10.7,203.9,9.2,203.9z"/>
<path class="st5" d="M7.4,199.7H7.3c-2.2,0-3.9-1.4-3.9-3.3c0-2.1,1.8-3.2,4-3.2h0.6v4.5c0.9-0.1,1.5-0.8,1.5-1.6
	c0-0.6-0.3-1.2-0.7-1.6l1.2-1c0.8,0.7,1.2,1.7,1.2,2.7c0,1.9-1.6,3.5-3.5,3.5C7.6,199.7,7.5,199.7,7.4,199.7z M6.7,195.1
	c-1,0.1-1.7,0.5-1.7,1.3s0.6,1.2,1.7,1.3V195.1z"/>
<path class="st5" d="M3.5,188.8v-2h1c-0.7-0.4-1.1-1.1-1.1-1.9c0-0.8,0.4-1.5,1.1-1.9c-0.7-0.5-1.1-1.3-1.1-2.1
	c0-1.3,0.9-2.2,2.5-2.2h5.1v2H6.5c-0.9,0-1.3,0.4-1.3,1s0.5,1.1,1.3,1.1h4.5v2H6.5c-0.9,0-1.3,0.4-1.3,1s0.5,1.1,1.3,1.1h4.5v2
	L3.5,188.8z"/>
<path class="st5" d="M7.4,177.3H7.3c-2.2,0-3.9-1.4-3.9-3.3c0-2.1,1.8-3.2,4-3.2c0.1,0,0.4,0,0.6,0v4.5c0.9,0,1.5-0.8,1.5-1.6
	c0-0.6-0.3-1.2-0.7-1.6l1.2-1c0.8,0.7,1.2,1.7,1.2,2.7c0,1.9-1.6,3.5-3.5,3.5C7.6,177.4,7.5,177.3,7.4,177.3z M6.7,172.8
	c-1,0.1-1.7,0.5-1.7,1.3s0.6,1.2,1.7,1.3V172.8z"/>
<path class="st5" d="M8.9,169.9L8.9,169.9c-1.7,0-2.5-1.1-2.5-2.6c0-0.5,0.1-1.1,0.3-1.6H6.5c-0.9,0-1.3,0.5-1.3,1.4
	c0,0.6,0.2,1.2,0.4,1.7l-1.5,0.6c-0.4-0.8-0.6-1.7-0.6-2.6c-0.2-1.5,0.9-2.8,2.4-3c0.2,0,0.4,0,0.7,0h4.6v1.9h-0.8
	c0.6,0.5,1,1.2,1,1.9c0,1.2-0.9,2.2-2.1,2.2C9,170,9,170,8.9,169.9z M8.6,165.7H8c-0.2,0.3-0.2,0.7-0.2,1.1c0,0.7,0.4,1.2,1.1,1.2
	l0,0c0.5,0,0.9-0.3,0.9-0.8c0-0.1,0-0.1,0-0.2C9.8,166.4,9.3,165.8,8.6,165.7C8.6,165.7,8.6,165.7,8.6,165.7z"/>
<path class="st5" d="M3.5,162.3v-2h1c-0.7-0.4-1.1-1.1-1.1-1.9c0-1.4,1-2.2,2.5-2.2h5.1v2H6.5c-0.9,0-1.3,0.4-1.3,1.1
	s0.5,1.1,1.3,1.1h4.5v2L3.5,162.3z"/>
<path class="st5" d="M7.4,151.8H7.2c-1.9,0.2-3.7-1.3-3.8-3.2c0-0.1,0-0.2,0-0.3c0-0.9,0.3-1.8,1-2.4l1.4,1.1
	c-0.4,0.3-0.7,0.8-0.7,1.3c0,0.9,0.9,1.5,2.1,1.5h0c1.2,0,2.1-0.6,2.1-1.6c0-0.5-0.3-1-0.7-1.4l1.3-1.1c0.8,0.6,1.2,1.6,1.2,2.6
	c0,1.9-1.6,3.5-3.6,3.4C7.6,151.8,7.5,151.8,7.4,151.8z"/>
<path class="st5" d="M7.4,145.2H7.2c-2,0.1-3.7-1.4-3.8-3.3c0-0.1,0-0.1,0-0.2c0-2,1.6-3.5,3.6-3.5c0.1,0,0.2,0,0.3,0h0.2
	c1.9-0.1,3.6,1.3,3.8,3.3c0.1,1.9-1.3,3.6-3.3,3.8C7.7,145.2,7.6,145.2,7.4,145.2L7.4,145.2z M7.4,140.1L7.4,140.1
	c-1.3,0-2.2,0.6-2.2,1.6s0.9,1.6,2.1,1.6h0.1c1.2,0,2.1-0.6,2.1-1.6S8.6,140.1,7.4,140.1L7.4,140.1z"/>
<path class="st5" d="M3.5,136.8v-2h1c-0.7-0.4-1.1-1.1-1.1-1.9c0-1.4,1-2.2,2.5-2.2h5.1v2H6.5c-0.9,0-1.3,0.4-1.3,1.1
	s0.5,1.1,1.3,1.1h4.5v2L3.5,136.8z"/>
<path class="st5" d="M7.4,129.4H7.2c-1.9,0.2-3.7-1.3-3.8-3.2c0-0.1,0-0.2,0-0.3c0-0.9,0.3-1.8,1-2.4l1.4,1.1
	c-0.4,0.3-0.7,0.8-0.7,1.3c0,0.9,0.9,1.5,2.1,1.5h0c1.3,0,2.1-0.6,2.1-1.6c0-0.5-0.3-1-0.7-1.3l1.3-1.1c0.8,0.6,1.2,1.6,1.2,2.6
	c-0.1,1.9-1.7,3.4-3.6,3.4C7.5,129.4,7.5,129.4,7.4,129.4z"/>
<path class="st5" d="M7.4,122.8H7.3c-2.2,0-3.9-1.4-3.9-3.3c0-2.1,1.8-3.2,4-3.2h0.6v4.5c0.9-0.1,1.5-0.8,1.5-1.6
	c0-0.6-0.3-1.2-0.7-1.6l1.2-1c0.8,0.7,1.2,1.6,1.2,2.7c0,1.9-1.6,3.5-3.5,3.5C7.6,122.9,7.5,122.9,7.4,122.8z M6.7,118.3
	c-1,0.1-1.7,0.5-1.7,1.3s0.6,1.2,1.7,1.3V118.3z"/>
<path class="st5" d="M3.5,115.1v-2h1c-0.7-0.4-1.1-1.1-1.1-1.9c0-1.4,1-2.2,2.5-2.2h5.1v2H6.5c-0.9,0-1.3,0.4-1.3,1.1
	s0.5,1.1,1.3,1.1h4.5v2L3.5,115.1z"/>
<path class="st5" d="M9.2,107.1H5.2v0.8H3.5v-0.8H1.6v-2h1.9v-1.5h1.7v1.5h3.6c0.4,0,0.6-0.2,0.6-0.6c0-0.3-0.1-0.6-0.2-0.9h1.6
	c0.3,0.4,0.4,1,0.4,1.5C11.2,106.3,10.7,107.1,9.2,107.1z"/>
<path class="st5" d="M3.5,102.3v-2h1.3c-0.9-0.2-1.5-1.1-1.5-2h2.2v0.1c0,1.2,0.8,2,2.3,2h3.2v2L3.5,102.3z"/>
<path class="st5" d="M8.9,97.8L8.9,97.8c-1.7,0-2.5-1.1-2.5-2.6c0-0.5,0.1-1.1,0.3-1.6H6.5c-0.9,0-1.3,0.5-1.3,1.4
	c0,0.6,0.2,1.2,0.4,1.7l-1.5,0.6c-0.4-0.8-0.6-1.7-0.6-2.6c-0.2-1.5,0.9-2.8,2.4-3c0.2,0,0.4,0,0.7,0h4.6v1.9h-0.8
	c0.6,0.5,1,1.2,1,2c0,1.2-1,2.1-2.1,2.1C9,97.9,9,97.9,8.9,97.8z M8.6,93.6H8c-0.2,0.3-0.2,0.7-0.2,1.1c0,0.7,0.4,1.2,1.1,1.2l0,0
	c0.5,0,0.9-0.3,0.9-0.8c0-0.1,0-0.1,0-0.2C9.8,94.3,9.3,93.7,8.6,93.6C8.6,93.6,8.6,93.6,8.6,93.6z"/>
<path class="st5" d="M9.2,90H5.2v0.8H3.5V90H1.6v-2h1.9v-1.5h1.7V88h3.6c0.4,0,0.6-0.2,0.6-0.6c0-0.3-0.1-0.6-0.2-0.8h1.6
	c0.3,0.4,0.4,1,0.4,1.5C11.2,89.1,10.7,90,9.2,90z"/>
<path class="st5" d="M0.9,85.2v-2.1h1.8v2.1H0.9z M3.5,85.2v-2h7.5v2H3.5z"/>
<path class="st5" d="M7.4,81.7H7.2c-2,0.1-3.7-1.4-3.8-3.3c0-0.1,0-0.1,0-0.2c0-2,1.6-3.5,3.6-3.5c0.1,0,0.2,0,0.3,0h0.2
	c2-0.2,3.7,1.3,3.9,3.2c0.2,2-1.3,3.7-3.2,3.9C7.8,81.8,7.6,81.8,7.4,81.7L7.4,81.7z M7.4,76.6L7.4,76.6c-1.3,0-2.2,0.6-2.2,1.6
	s0.9,1.6,2.1,1.6h0.1c1.2,0,2.1-0.6,2.1-1.6S8.6,76.6,7.4,76.6L7.4,76.6z"/>
<path class="st5" d="M3.5,73.4v-2h1c-0.7-0.4-1.1-1.1-1.1-1.9c0-1.4,1-2.2,2.5-2.2h5.1v2H6.5c-0.9,0-1.3,0.4-1.3,1.1
	s0.5,1.1,1.3,1.1h4.5v2L3.5,73.4z"/>
<path class="st5" d="M7,62.6c-2.6,0.2-4.9-1.3-6-3.6l1.3-0.8c1,1.6,2.8,2.6,4.7,2.5c1.9,0.1,3.7-0.8,4.7-2.4l1.3,0.8
	C12,61.3,9.6,62.7,7,62.6z"/>
<path class="st5" d="M3.5,56.9v-2h1c-0.7-0.4-1.1-1.1-1.1-1.9c0-1.4,1-2.2,2.5-2.2h5.1v2H6.5c-0.9,0-1.3,0.4-1.3,1.1
	s0.5,1.1,1.3,1.1h4.5v2L3.5,56.9z"/>
<path class="st5" d="M12.6,49.2L11,48.6c0.4-0.7,0.6-1.4,0.5-2.1c0-1.2-0.6-1.8-1.8-1.8H9.3c0.7,0.5,1.2,1.3,1.2,2.1
	c0,1.5-1.2,2.8-3.5,2.8l0,0c-2.4,0-3.5-1.3-3.5-2.8c0-0.8,0.4-1.6,1.1-2.1h-1v-2h6.2c1-0.1,1.9,0.2,2.6,0.8c0.7,0.8,1,1.8,0.9,2.9
	C13.2,47.3,13,48.3,12.6,49.2z M6.9,44.6L6.9,44.6c-1.1,0-1.8,0.6-1.8,1.5s0.7,1.5,1.8,1.5l0,0c1.1,0,1.8-0.6,1.8-1.5
	S8.1,44.6,6.9,44.6z"/>
<path class="st5" d="M0,36.8v-1.7l12.7,5.3v1.7L0,36.8z"/>
<path class="st5" d="M3.5,35.1v-2h1c-0.7-0.4-1.1-1.1-1.1-1.9c0-0.8,0.4-1.5,1.1-1.9c-0.7-0.5-1.1-1.3-1.1-2.1
	c0-1.3,0.9-2.2,2.5-2.2h5.1v2H6.5c-0.9,0-1.3,0.4-1.3,1S5.7,29,6.5,29h4.5v2H6.5c-0.9,0-1.3,0.4-1.3,1c0,0.6,0.5,1.1,1.3,1.1h4.5v2
	L3.5,35.1z"/>
<path class="st5" d="M1.2,23.2v-2h7.9v-4h1.9v6H1.2z"/>
<path class="st5" d="M11.7,16.5c-1-1.6-2.8-2.6-4.7-2.5c-1.9-0.1-3.7,0.8-4.7,2.5l-1.3-0.8c1.1-2.3,3.4-3.8,6-3.6
	c2.6-0.2,4.9,1.3,6,3.6L11.7,16.5z"/>
<g>
	<path d="M271.3,331.1h-2.5v-1.8h7.3v1.8h-2.6v7.6h-2.1V331.1z"/>
	<path d="M278.9,330c0,0.6-0.4,1.1-1.1,1.1c-0.7,0-1.1-0.5-1.1-1.1c0-0.6,0.4-1.1,1.1-1.1S278.9,329.4,278.9,330z M276.7,338.8v-6.8
		h2.1v6.8H276.7z"/>
	<path d="M280.6,334.1c0-0.9,0-1.6-0.1-2.2h1.8l0.1,0.9h0c0.3-0.4,0.9-1.1,2.1-1.1c0.9,0,1.6,0.4,1.9,1.2h0c0.3-0.4,0.6-0.6,0.9-0.8
		c0.4-0.2,0.8-0.3,1.3-0.3c1.3,0,2.3,0.9,2.3,3v4h-2.1V335c0-1-0.3-1.6-1-1.6c-0.5,0-0.8,0.3-1,0.7c-0.1,0.2-0.1,0.4-0.1,0.5v4h-2.1
		v-3.8c0-0.9-0.3-1.5-1-1.5c-0.5,0-0.9,0.4-1,0.8c-0.1,0.2-0.1,0.4-0.1,0.5v4h-2.1V334.1z"/>
	<path d="M294.2,336c0.1,0.9,0.9,1.3,1.9,1.3c0.7,0,1.3-0.1,1.9-0.3l0.3,1.4c-0.7,0.3-1.6,0.4-2.5,0.4c-2.3,0-3.7-1.3-3.7-3.5
		c0-1.7,1.1-3.7,3.5-3.7c2.2,0,3.1,1.7,3.1,3.4c0,0.4,0,0.7-0.1,0.8H294.2z M296.7,334.6c0-0.5-0.2-1.4-1.2-1.4
		c-0.9,0-1.3,0.8-1.3,1.4H296.7z"/>
	<path d="M305.9,329.1c-0.8,1.3-1.4,3.2-1.4,5.7c0,2.5,0.6,4.3,1.4,5.6h-1.5c-0.8-1.1-1.6-2.9-1.6-5.6c0-2.7,0.8-4.6,1.6-5.7H305.9z
		"/>
	<path d="M307.2,328.8h2.1v3.9h0c0.2-0.3,0.5-0.5,0.8-0.7c0.3-0.2,0.7-0.3,1.1-0.3c1.4,0,2.4,0.9,2.4,3v4h-2.1V335
		c0-0.9-0.3-1.5-1.1-1.5c-0.6,0-0.9,0.4-1.1,0.7c-0.1,0.1-0.1,0.3-0.1,0.5v4.1h-2.1V328.8z"/>
	<path d="M315.1,340.4c0.8-1.3,1.4-3.2,1.4-5.7s-0.6-4.3-1.4-5.6h1.5c0.7,1.1,1.6,2.9,1.6,5.6c0,2.7-0.9,4.6-1.6,5.7H315.1z"/>
</g>
</svg>
